<?xml version="1.0" encoding="UTF-8" standalone="no"?>
<!-- Created with Inkscape (http://www.inkscape.org/) -->

<svg
   xmlns:dc="http://purl.org/dc/elements/1.1/"
   xmlns:cc="http://creativecommons.org/ns#"
   xmlns:rdf="http://www.w3.org/1999/02/22-rdf-syntax-ns#"
   xmlns:svg="http://www.w3.org/2000/svg"
   xmlns="http://www.w3.org/2000/svg"
   xmlns:xlink="http://www.w3.org/1999/xlink"
   xmlns:sodipodi="http://sodipodi.sourceforge.net/DTD/sodipodi-0.dtd"
   xmlns:inkscape="http://www.inkscape.org/namespaces/inkscape"
   width="2500"
   height="4000"
   viewBox="0 0 2500 4000"
   version="1.1"
   id="svg8"
   inkscape:version="0.92.3 (2405546, 2018-03-11)"
   sodipodi:docname="map_castlepath.svg">
  <defs
     id="defs2" />
  <sodipodi:namedview
     id="base"
     pagecolor="#ffffff"
     bordercolor="#666666"
     borderopacity="1.0"
     inkscape:pageopacity="0.0"
     inkscape:pageshadow="2"
     inkscape:zoom="1.4"
     inkscape:cx="2109.662"
     inkscape:cy="2290.2149"
     inkscape:document-units="px"
     inkscape:current-layer="layer1"
     showgrid="false"
     units="px"
     borderlayer="true"
     inkscape:window-width="1920"
     inkscape:window-height="1015"
     inkscape:window-x="0"
     inkscape:window-y="0"
     inkscape:window-maximized="1"
     inkscape:snap-global="false" />
  <metadata
     id="metadata5">
    <rdf:RDF>
      <cc:Work
         rdf:about="">
        <dc:format>image/svg+xml</dc:format>
        <dc:type
           rdf:resource="http://purl.org/dc/dcmitype/StillImage" />
        <dc:title />
      </cc:Work>
    </rdf:RDF>
  </metadata>
  <g
     inkscape:groupmode="layer"
     id="layer1"
     inkscape:label="Layer 1"
     style="display:inline">
    <image
       sodipodi:absref="/home/magnes/Dreamcast/summoning_signals/asset/RAW/map_castlepath/echafaud2.png"
       xlink:href="echafaud2.png"
       width="116"
       height="177"
       preserveAspectRatio="none"
       style="image-rendering:optimizeSpeed"
       id="image902-2-4"
       x="1176.0344"
       y="2959.0649" />
    <image
       sodipodi:absref="/home/magnes/Dreamcast/summoning_signals/asset/RAW/map_castlepath/m3.png"
       xlink:href="m3.png"
       transform="rotate(-145.88569)"
       width="334.22476"
       height="586.63409"
       preserveAspectRatio="none"
       style="image-rendering:optimizeSpeed"
       id="image1379-1"
       x="-2704.8059"
       y="-1746.0227" />
    <image
       sodipodi:absref="/home/magnes/Dreamcast/summoning_signals/asset/RAW/map_castlepath/echafaud.png"
       xlink:href="echafaud.png"
       y="2457.1228"
       x="1455.9659"
       id="image891-78"
       style="image-rendering:optimizeSpeed"
       preserveAspectRatio="none"
       height="173"
       width="141" />
    <image
       sodipodi:absref="/home/magnes/Dreamcast/summoning_signals/asset/RAW/map_castlepath/echafaud2.png"
       xlink:href="echafaud2.png"
       y="2512.98"
       x="1376.3231"
       id="image902-4"
       style="image-rendering:optimizeSpeed"
       preserveAspectRatio="none"
       height="177"
       width="116" />
    <image
       sodipodi:absref="/home/magnes/Dreamcast/summoning_signals/asset/RAW/map_castlepath/poteau_1.png"
       xlink:href="poteau_1.png"
       y="2519.5559"
       x="924.02307"
       id="image968-5"
       style="image-rendering:optimizeSpeed"
       preserveAspectRatio="none"
       height="117"
       width="9" />
    <image
       sodipodi:absref="/home/magnes/Dreamcast/summoning_signals/asset/RAW/map_castlepath/echafaud.png"
       xlink:href="echafaud.png"
       width="141"
       height="173"
       preserveAspectRatio="none"
       style="image-rendering:optimizeSpeed"
       id="image891-3-6-0"
       x="-1317.3821"
       y="2557.6055"
       transform="scale(-1,1)" />
    <image
       sodipodi:absref="/home/magnes/Dreamcast/summoning_signals/asset/RAW/map_castlepath/poteau_1.png"
       xlink:href="poteau_1.png"
       width="9"
       height="117"
       preserveAspectRatio="none"
       style="image-rendering:optimizeSpeed"
       id="image968-0-3"
       x="1406.9181"
       y="2927.0986" />
    <image
       sodipodi:absref="/home/magnes/Dreamcast/summoning_signals/asset/RAW/map_castlepath/poteau_1.png"
       xlink:href="poteau_1.png"
       width="9"
       height="117"
       preserveAspectRatio="none"
       style="image-rendering:optimizeSpeed"
       id="image968-9-6"
       x="1407.1859"
       y="2817.3159" />
    <image
       sodipodi:absref="/home/magnes/Dreamcast/summoning_signals/asset/RAW/map_castlepath/poteau_1.png"
       xlink:href="poteau_1.png"
       width="9"
       height="117"
       preserveAspectRatio="none"
       style="image-rendering:optimizeSpeed"
       id="image968-7-1"
       x="1407.1705"
       y="2706.9116" />
    <image
       sodipodi:absref="/home/magnes/Dreamcast/summoning_signals/asset/RAW/map_castlepath/echafaud.png"
       xlink:href="echafaud.png"
       width="141"
       height="173"
       preserveAspectRatio="none"
       style="image-rendering:optimizeSpeed"
       id="image891-3-0"
       x="1274.5785"
       y="2577.7283" />
    <image
       sodipodi:absref="/home/magnes/Dreamcast/summoning_signals/asset/RAW/map_castlepath/echafaud2.png"
       xlink:href="echafaud2.png"
       width="116"
       height="177"
       preserveAspectRatio="none"
       style="image-rendering:optimizeSpeed"
       id="image902-6-6"
       x="1645.4432"
       y="2197.9937" />
    <image
       sodipodi:absref="/home/magnes/Dreamcast/summoning_signals/asset/RAW/map_castlepath/echafaud.png"
       xlink:href="echafaud.png"
       width="141"
       height="173"
       preserveAspectRatio="none"
       style="image-rendering:optimizeSpeed"
       id="image891-7-3"
       x="1546.0865"
       y="2318.0879" />
    <image
       sodipodi:absref="/home/magnes/Dreamcast/summoning_signals/asset/RAW/map_castlepath/echelle1.png"
       xlink:href="echelle1.png"
       y="2366.0635"
       x="1539.92"
       id="image913-2"
       style="image-rendering:optimizeSpeed"
       preserveAspectRatio="none"
       height="132"
       width="43" />
    <image
       sodipodi:absref="/home/magnes/Dreamcast/summoning_signals/asset/RAW/map_castlepath/echafaud.png"
       xlink:href="echafaud.png"
       width="141"
       height="173"
       preserveAspectRatio="none"
       style="image-rendering:optimizeSpeed"
       id="image891-3-6-5-6-06"
       x="-1109.864"
       y="2322.0139"
       transform="scale(-1,1)" />
    <image
       sodipodi:absref="/home/magnes/Dreamcast/summoning_signals/asset/RAW/map_castlepath/echafaud.png"
       xlink:href="echafaud.png"
       width="141"
       height="173"
       preserveAspectRatio="none"
       style="image-rendering:optimizeSpeed"
       id="image891-3-6-5-3-1"
       x="1036.0067"
       y="2403.4424" />
    <image
       sodipodi:absref="/home/magnes/Dreamcast/summoning_signals/asset/RAW/map_castlepath/planche_3.png"
       xlink:href="planche_3.png"
       y="2371.623"
       x="-1133.3231"
       id="image957-55"
       style="image-rendering:optimizeSpeed"
       preserveAspectRatio="none"
       height="64"
       width="58"
       transform="scale(-1,1)" />
    <image
       sodipodi:absref="/home/magnes/Dreamcast/summoning_signals/asset/RAW/map_castlepath/planche_2.png"
       xlink:href="planche_2.png"
       y="2454.623"
       x="939.32312"
       id="image946-4"
       style="image-rendering:optimizeSpeed"
       preserveAspectRatio="none"
       height="48"
       width="130" />
    <image
       sodipodi:absref="/home/magnes/Dreamcast/summoning_signals/asset/RAW/map_castlepath/planche_1.png"
       xlink:href="planche_1.png"
       y="2460.9087"
       x="975.32312"
       id="image935-7"
       style="image-rendering:optimizeSpeed"
       preserveAspectRatio="none"
       height="54"
       width="118" />
    <image
       sodipodi:absref="/home/magnes/Dreamcast/summoning_signals/asset/RAW/map_castlepath/echafaud.png"
       xlink:href="echafaud.png"
       width="141"
       height="173"
       preserveAspectRatio="none"
       style="image-rendering:optimizeSpeed"
       id="image891-3-6-7-6"
       x="-805.57825"
       y="2522.0142"
       transform="scale(-1,1)" />
    <image
       sodipodi:absref="/home/magnes/Dreamcast/summoning_signals/asset/RAW/map_castlepath/planche_2.png"
       xlink:href="planche_2.png"
       width="130"
       height="48"
       preserveAspectRatio="none"
       style="image-rendering:optimizeSpeed"
       id="image946-9-5"
       x="719.84363"
       y="2537.0686" />
    <image
       sodipodi:absref="/home/magnes/Dreamcast/summoning_signals/asset/RAW/map_castlepath/planche_1.png"
       xlink:href="planche_1.png"
       width="118"
       height="54"
       preserveAspectRatio="none"
       style="image-rendering:optimizeSpeed"
       id="image935-1-6"
       x="755.84363"
       y="2543.3542" />
    <image
       sodipodi:absref="/home/magnes/Dreamcast/summoning_signals/asset/RAW/map_castlepath/planche_3.png"
       xlink:href="planche_3.png"
       width="58"
       height="64"
       preserveAspectRatio="none"
       style="image-rendering:optimizeSpeed"
       id="image957-5-2-9"
       x="908.74158"
       y="2480.3879" />
    <image
       sodipodi:absref="/home/magnes/Dreamcast/summoning_signals/asset/RAW/map_castlepath/echelle2.png"
       xlink:href="echelle2.png"
       y="2486.9087"
       x="880.10876"
       id="image924-3"
       style="image-rendering:optimizeSpeed"
       preserveAspectRatio="none"
       height="52"
       width="117" />
    <image
       sodipodi:absref="/home/magnes/Dreamcast/summoning_signals/asset/RAW/map_castlepath/echafaud.png"
       xlink:href="echafaud.png"
       width="141"
       height="173"
       preserveAspectRatio="none"
       style="image-rendering:optimizeSpeed"
       id="image891-3-6-5-7"
       x="1085.2927"
       y="2428.4424" />
    <image
       sodipodi:absref="/home/magnes/Dreamcast/summoning_signals/asset/RAW/map_castlepath/planche_3.png"
       xlink:href="planche_3.png"
       width="58"
       height="64"
       preserveAspectRatio="none"
       style="image-rendering:optimizeSpeed"
       id="image957-5-4"
       x="1053.2212"
       y="2397.228" />
    <image
       sodipodi:absref="/home/magnes/Dreamcast/summoning_signals/asset/RAW/map_castlepath/echelle2.png"
       xlink:href="echelle2.png"
       width="117"
       height="52"
       preserveAspectRatio="none"
       style="image-rendering:optimizeSpeed"
       id="image924-2-5"
       x="803.00671"
       y="2505.3711" />
    <image
       sodipodi:absref="/home/magnes/Dreamcast/summoning_signals/asset/RAW/map_castlepath/echafaud.png"
       xlink:href="echafaud.png"
       width="141"
       height="173"
       preserveAspectRatio="none"
       style="image-rendering:optimizeSpeed"
       id="image891-3-6-5-6-0-2"
       x="-1109.5751"
       y="2213.0469"
       transform="scale(-1,1)" />
    <image
       sodipodi:absref="/home/magnes/Dreamcast/summoning_signals/asset/RAW/map_castlepath/echafaud2.png"
       xlink:href="echafaud2.png"
       width="116"
       height="177"
       preserveAspectRatio="none"
       style="image-rendering:optimizeSpeed"
       id="image902-2-3-2-7-1"
       x="-749.85669"
       y="1478.1616"
       transform="scale(-1,1)" />
    <image
       sodipodi:absref="/home/magnes/Dreamcast/summoning_signals/asset/RAW/map_castlepath/m3.png"
       xlink:href="m3.png"
       y="1611.3643"
       x="747.80585"
       id="image1379-1-6"
       style="image-rendering:optimizeSpeed"
       preserveAspectRatio="none"
       height="586.63409"
       width="334.22476" />
    <image
       sodipodi:absref="/home/magnes/Dreamcast/summoning_signals/asset/RAW/map_castlepath/echafaud.png"
       xlink:href="echafaud.png"
       width="141"
       height="173"
       preserveAspectRatio="none"
       style="image-rendering:optimizeSpeed"
       id="image891-3-6-5-6-9-5"
       x="-1109.2147"
       y="2100.8552"
       transform="scale(-1,1)" />
    <image
       sodipodi:absref="/home/magnes/Dreamcast/summoning_signals/asset/RAW/map_castlepath/echafaud.png"
       xlink:href="echafaud.png"
       width="141"
       height="173"
       preserveAspectRatio="none"
       style="image-rendering:optimizeSpeed"
       id="image891-3-6-5-6-0-3-4"
       x="-1108.9258"
       y="1991.8882"
       transform="scale(-1,1)" />
    <image
       sodipodi:absref="/home/magnes/Dreamcast/summoning_signals/asset/RAW/map_castlepath/planche_3.png"
       xlink:href="planche_3.png"
       transform="scale(-1,1)"
       width="58"
       height="64"
       preserveAspectRatio="none"
       style="image-rendering:optimizeSpeed"
       id="image957-0-7"
       x="-1720.8439"
       y="2261.5686" />
    <image
       sodipodi:absref="/home/magnes/Dreamcast/summoning_signals/asset/RAW/map_castlepath/planche_3.png"
       xlink:href="planche_3.png"
       width="58"
       height="64"
       preserveAspectRatio="none"
       style="image-rendering:optimizeSpeed"
       id="image957-0-2-4"
       x="2294.5176"
       y="1655.4803"
       transform="rotate(18.045289)" />
    <image
       sodipodi:absref="/home/magnes/Dreamcast/summoning_signals/asset/RAW/map_castlepath/planche_3.png"
       xlink:href="planche_3.png"
       width="58"
       height="64"
       preserveAspectRatio="none"
       style="image-rendering:optimizeSpeed"
       id="image957-5-6-4"
       x="1640.7418"
       y="2287.1738" />
    <image
       sodipodi:absref="/home/magnes/Dreamcast/summoning_signals/asset/RAW/map_castlepath/echelle1.png"
       xlink:href="echelle1.png"
       width="43"
       height="132"
       preserveAspectRatio="none"
       style="image-rendering:optimizeSpeed"
       id="image913-6-3"
       x="1266.4358"
       y="2639.657" />
    <image
       sodipodi:absref="/home/magnes/Dreamcast/summoning_signals/asset/RAW/map_castlepath/echelle1.png"
       xlink:href="echelle1.png"
       width="43"
       height="132"
       preserveAspectRatio="none"
       style="image-rendering:optimizeSpeed"
       id="image913-1-0"
       x="1252.5071"
       y="2756.4424" />
    <image
       sodipodi:absref="/home/magnes/Dreamcast/summoning_signals/asset/RAW/map_castlepath/echelle1.png"
       xlink:href="echelle1.png"
       width="43"
       height="132"
       preserveAspectRatio="none"
       style="image-rendering:optimizeSpeed"
       id="image913-8-7"
       x="1239.6498"
       y="2868.228" />
    <image
       sodipodi:absref="/home/magnes/Dreamcast/summoning_signals/asset/RAW/map_castlepath/poteau_1.png"
       xlink:href="poteau_1.png"
       width="9"
       height="117"
       preserveAspectRatio="none"
       style="image-rendering:optimizeSpeed"
       id="image968-0-2-8"
       x="1316.8733"
       y="2962.9646" />
    <image
       sodipodi:absref="/home/magnes/Dreamcast/summoning_signals/asset/RAW/map_castlepath/poteau_1.png"
       xlink:href="poteau_1.png"
       width="9"
       height="117"
       preserveAspectRatio="none"
       style="image-rendering:optimizeSpeed"
       id="image968-9-3-6"
       x="1317.141"
       y="2853.1819" />
    <image
       sodipodi:absref="/home/magnes/Dreamcast/summoning_signals/asset/RAW/map_castlepath/poteau_1.png"
       xlink:href="poteau_1.png"
       width="9"
       height="117"
       preserveAspectRatio="none"
       style="image-rendering:optimizeSpeed"
       id="image968-7-7-8"
       x="1317.1256"
       y="2742.7776" />
    <image
       sodipodi:absref="/home/magnes/Dreamcast/summoning_signals/asset/RAW/map_castlepath/poteau_1.png"
       xlink:href="poteau_1.png"
       width="9"
       height="117"
       preserveAspectRatio="none"
       style="image-rendering:optimizeSpeed"
       id="image968-0-5-8"
       x="1217.5873"
       y="2889.3931" />
    <image
       sodipodi:absref="/home/magnes/Dreamcast/summoning_signals/asset/RAW/map_castlepath/poteau_1.png"
       xlink:href="poteau_1.png"
       width="9"
       height="117"
       preserveAspectRatio="none"
       style="image-rendering:optimizeSpeed"
       id="image968-9-9-4"
       x="1217.8551"
       y="2779.6104" />
    <image
       sodipodi:absref="/home/magnes/Dreamcast/summoning_signals/asset/RAW/map_castlepath/poteau_1.png"
       xlink:href="poteau_1.png"
       width="9"
       height="117"
       preserveAspectRatio="none"
       style="image-rendering:optimizeSpeed"
       id="image968-7-2-3"
       x="1217.8397"
       y="2669.2061" />
    <image
       sodipodi:absref="/home/magnes/Dreamcast/summoning_signals/asset/RAW/map_castlepath/echafaud.png"
       xlink:href="echafaud.png"
       width="141"
       height="173"
       preserveAspectRatio="none"
       style="image-rendering:optimizeSpeed"
       id="image891-3-6-7-9-1"
       x="-1489.193"
       y="3049.5583"
       transform="scale(-1,1)" />
    <image
       sodipodi:absref="/home/magnes/Dreamcast/summoning_signals/asset/RAW/map_castlepath/planche_2.png"
       xlink:href="planche_2.png"
       width="130"
       height="48"
       preserveAspectRatio="none"
       style="image-rendering:optimizeSpeed"
       id="image946-9-7-4"
       x="-1433.9279"
       y="3037.3386"
       transform="scale(-1,1)" />
    <image
       sodipodi:absref="/home/magnes/Dreamcast/summoning_signals/asset/RAW/map_castlepath/planche_1.png"
       xlink:href="planche_1.png"
       width="118"
       height="54"
       preserveAspectRatio="none"
       style="image-rendering:optimizeSpeed"
       id="image935-1-3-92"
       x="-1397.9279"
       y="3043.6243"
       transform="scale(-1,1)" />
    <image
       sodipodi:absref="/home/magnes/Dreamcast/summoning_signals/asset/RAW/map_castlepath/planche_3.png"
       xlink:href="planche_3.png"
       width="58"
       height="64"
       preserveAspectRatio="none"
       style="image-rendering:optimizeSpeed"
       id="image957-5-2-6-0"
       x="-1302.6085"
       y="2996.8203"
       transform="scale(-1,1)" />
    <image
       sodipodi:absref="/home/magnes/Dreamcast/summoning_signals/asset/RAW/map_castlepath/echelle2.png"
       xlink:href="echelle2.png"
       width="117"
       height="52"
       preserveAspectRatio="none"
       style="image-rendering:optimizeSpeed"
       id="image924-1-6"
       x="-1331.2412"
       y="3003.3411"
       transform="scale(-1,1)" />
    <image
       sodipodi:absref="/home/magnes/Dreamcast/summoning_signals/asset/RAW/map_castlepath/echafaud2.png"
       xlink:href="echafaud2.png"
       width="116"
       height="177"
       preserveAspectRatio="none"
       style="image-rendering:optimizeSpeed"
       id="image902-2-9-9"
       x="-1561.6495"
       y="3105.728"
       transform="scale(-1,1)" />
    <image
       sodipodi:absref="/home/magnes/Dreamcast/summoning_signals/asset/RAW/map_castlepath/m3.png"
       xlink:href="m3.png"
       width="242.46205"
       height="425.57141"
       preserveAspectRatio="none"
       style="image-rendering:optimizeSpeed"
       id="image1379-0"
       x="1536.7164"
       y="2898.5002" />
    <image
       sodipodi:absref="/home/magnes/Dreamcast/summoning_signals/asset/RAW/map_castlepath/echafaud2.png"
       xlink:href="echafaud2.png"
       width="116"
       height="177"
       preserveAspectRatio="none"
       style="image-rendering:optimizeSpeed"
       id="image902-2-3-2"
       x="-1649.1495"
       y="3174.6562"
       transform="scale(-1,1)" />
    <image
       sodipodi:absref="/home/magnes/Dreamcast/summoning_signals/asset/RAW/map_castlepath/planche_1.png"
       xlink:href="planche_1.png"
       y="3161.2144"
       x="-1615.7856"
       id="image935-1-3-9-6"
       style="image-rendering:optimizeSpeed"
       preserveAspectRatio="none"
       height="54"
       width="118"
       transform="scale(-1,1)" />
    <image
       sodipodi:absref="/home/magnes/Dreamcast/summoning_signals/asset/RAW/map_castlepath/echelle2.png"
       xlink:href="echelle2.png"
       width="117"
       height="52"
       preserveAspectRatio="none"
       style="image-rendering:optimizeSpeed"
       id="image924-2-2-8"
       x="-1711.8285"
       y="3233.6396"
       transform="scale(-1,1)" />
    <image
       sodipodi:absref="/home/magnes/Dreamcast/summoning_signals/asset/RAW/map_castlepath/echafaud2.png"
       xlink:href="echafaud2.png"
       transform="scale(-1,1)"
       y="1649.6184"
       x="-914.68164"
       id="image902-2-9-9-2"
       style="image-rendering:optimizeSpeed"
       preserveAspectRatio="none"
       height="177"
       width="116" />
    <image
       sodipodi:absref="/home/magnes/Dreamcast/summoning_signals/asset/RAW/map_castlepath/echafaud2.png"
       xlink:href="echafaud2.png"
       transform="scale(-1,1)"
       y="1718.5469"
       x="-1002.1816"
       id="image902-2-3-2-7"
       style="image-rendering:optimizeSpeed"
       preserveAspectRatio="none"
       height="177"
       width="116" />
    <image
       sodipodi:absref="/home/magnes/Dreamcast/summoning_signals/asset/RAW/map_castlepath/echelle1.png"
       xlink:href="echelle1.png"
       y="1782.0095"
       x="-999.3457"
       id="image913-1-0-9"
       style="image-rendering:optimizeSpeed"
       preserveAspectRatio="none"
       height="132"
       width="43"
       transform="scale(-1,1)" />
    <image
       sodipodi:absref="/home/magnes/Dreamcast/summoning_signals/asset/RAW/map_castlepath/echelle1.png"
       xlink:href="echelle1.png"
       y="1893.7954"
       x="-1012.2029"
       id="image913-8-7-1"
       style="image-rendering:optimizeSpeed"
       preserveAspectRatio="none"
       height="132"
       width="43"
       transform="scale(-1,1)" />
    <image
       sodipodi:absref="/home/magnes/Dreamcast/summoning_signals/asset/RAW/map_castlepath/echelle2.png"
       xlink:href="echelle2.png"
       transform="scale(-1,1)"
       y="3270.7725"
       x="-1799.9286"
       id="image924-2-2-8-9"
       style="image-rendering:optimizeSpeed"
       preserveAspectRatio="none"
       height="52"
       width="117" />
    <image
       sodipodi:absref="/home/magnes/Dreamcast/summoning_signals/asset/RAW/map_castlepath/echelle1.png"
       xlink:href="echelle1.png"
       y="3134.1687"
       x="-2773.2876"
       id="image913-8-7-3"
       style="image-rendering:optimizeSpeed"
       preserveAspectRatio="none"
       height="132"
       width="43"
       transform="scale(-1,1)" />
    <image
       sodipodi:absref="/home/magnes/Dreamcast/summoning_signals/asset/RAW/map_castlepath/poteau_1.png"
       xlink:href="poteau_1.png"
       y="3434.2178"
       x="2702.9697"
       id="image968-7-7-8-6"
       style="image-rendering:optimizeSpeed"
       preserveAspectRatio="none"
       height="117"
       width="9" />
    <image
       sodipodi:absref="/home/magnes/Dreamcast/summoning_signals/asset/RAW/map_castlepath/m4.png"
       xlink:href="m4.png"
       y="3451.9175"
       x="2017.2738"
       id="image1390"
       style="image-rendering:optimizeSpeed"
       preserveAspectRatio="none"
       height="506.11679"
       width="203.72801" />
    <image
       sodipodi:absref="/home/magnes/Dreamcast/summoning_signals/asset/RAW/map_castlepath/m3.png"
       xlink:href="m3.png"
       y="3680.991"
       x="-2348.356"
       id="image1379"
       style="image-rendering:optimizeSpeed"
       preserveAspectRatio="none"
       height="337"
       width="192"
       transform="scale(-1,1)" />
    <image
       sodipodi:absref="/home/magnes/Dreamcast/summoning_signals/asset/RAW/map_castlepath/echafaud.png"
       xlink:href="echafaud.png"
       transform="scale(-1,1)"
       y="3528.3047"
       x="-1923.8014"
       id="image891-3-6-7-9-1-6"
       style="image-rendering:optimizeSpeed"
       preserveAspectRatio="none"
       height="173"
       width="141" />
    <image
       sodipodi:absref="/home/magnes/Dreamcast/summoning_signals/asset/RAW/map_castlepath/echafaud.png"
       xlink:href="echafaud.png"
       width="141"
       height="173"
       preserveAspectRatio="none"
       style="image-rendering:optimizeSpeed"
       id="image891-3-6-7-9-1-6-1"
       x="1716.6427"
       y="3659.2144" />
    <image
       sodipodi:absref="/home/magnes/Dreamcast/summoning_signals/asset/RAW/map_castlepath/echelle1.png"
       xlink:href="echelle1.png"
       y="3564.9688"
       x="1806.2961"
       id="image913-1-0-0"
       style="image-rendering:optimizeSpeed"
       preserveAspectRatio="none"
       height="132"
       width="43" />
    <image
       sodipodi:absref="/home/magnes/Dreamcast/summoning_signals/asset/RAW/map_castlepath/poteau_1.png"
       xlink:href="poteau_1.png"
       y="3422.1396"
       x="2744.3516"
       id="image968-9-9-4-2"
       style="image-rendering:optimizeSpeed"
       preserveAspectRatio="none"
       height="117"
       width="9" />
    <image
       sodipodi:absref="/home/magnes/Dreamcast/summoning_signals/asset/RAW/map_castlepath/echafaud.png"
       xlink:href="echafaud.png"
       width="141"
       height="173"
       preserveAspectRatio="none"
       style="image-rendering:optimizeSpeed"
       id="image891-3-6-7-9-1-6-1-8"
       x="1768.4286"
       y="3683.1431" />
    <image
       sodipodi:absref="/home/magnes/Dreamcast/summoning_signals/asset/RAW/map_castlepath/poteau_1.png"
       xlink:href="poteau_1.png"
       width="9"
       height="117"
       preserveAspectRatio="none"
       style="image-rendering:optimizeSpeed"
       id="image968-0-2-8-9-8"
       x="1964.4777"
       y="3892.5249" />
    <image
       sodipodi:absref="/home/magnes/Dreamcast/summoning_signals/asset/RAW/map_castlepath/poteau_1.png"
       xlink:href="poteau_1.png"
       width="9"
       height="117"
       preserveAspectRatio="none"
       style="image-rendering:optimizeSpeed"
       id="image968-0-2-8-9-7-4"
       x="2009.7415"
       y="3921.7847" />
    <image
       sodipodi:absref="/home/magnes/Dreamcast/summoning_signals/asset/RAW/map_castlepath/poteau_1.png"
       xlink:href="poteau_1.png"
       y="3784.4561"
       x="1964.5742"
       id="image968-0-2-8-9"
       style="image-rendering:optimizeSpeed"
       preserveAspectRatio="none"
       height="117"
       width="9" />
    <image
       sodipodi:absref="/home/magnes/Dreamcast/summoning_signals/asset/RAW/map_castlepath/planche_2.png"
       xlink:href="planche_2.png"
       transform="scale(-1,1)"
       y="3758.8301"
       x="-2021.2717"
       id="image946-9-7-4-2"
       style="image-rendering:optimizeSpeed"
       preserveAspectRatio="none"
       height="48"
       width="130" />
    <image
       sodipodi:absref="/home/magnes/Dreamcast/summoning_signals/asset/RAW/map_castlepath/planche_1.png"
       xlink:href="planche_1.png"
       transform="scale(-1,1)"
       y="3770.1157"
       x="-1997.4147"
       id="image935-1-3-92-0"
       style="image-rendering:optimizeSpeed"
       preserveAspectRatio="none"
       height="54"
       width="118" />
    <image
       sodipodi:absref="/home/magnes/Dreamcast/summoning_signals/asset/RAW/map_castlepath/planche_3.png"
       xlink:href="planche_3.png"
       transform="scale(-1,1)"
       y="3726.5264"
       x="-1917.8096"
       id="image957-5-2-6-0-2"
       style="image-rendering:optimizeSpeed"
       preserveAspectRatio="none"
       height="64"
       width="58" />
    <image
       sodipodi:absref="/home/magnes/Dreamcast/summoning_signals/asset/RAW/map_castlepath/echafaud2.png"
       xlink:href="echafaud2.png"
       transform="scale(-1,1)"
       y="3818.8523"
       x="-2159.7749"
       id="image902-2-9-9-7"
       style="image-rendering:optimizeSpeed"
       preserveAspectRatio="none"
       height="177"
       width="116" />
    <image
       sodipodi:absref="/home/magnes/Dreamcast/summoning_signals/asset/RAW/map_castlepath/poteau_1.png"
       xlink:href="poteau_1.png"
       width="9"
       height="117"
       preserveAspectRatio="none"
       style="image-rendering:optimizeSpeed"
       id="image968-7-7-8-6-7"
       x="2097.2468"
       y="3716.4143" />
    <image
       sodipodi:absref="/home/magnes/Dreamcast/summoning_signals/asset/RAW/map_castlepath/planche_1.png"
       xlink:href="planche_1.png"
       width="118"
       height="54"
       preserveAspectRatio="none"
       style="image-rendering:optimizeSpeed"
       id="image935-1-3-92-0-4"
       x="-2105.1577"
       y="3796.2234"
       transform="scale(-1,1)" />
    <image
       sodipodi:absref="/home/magnes/Dreamcast/summoning_signals/asset/RAW/map_castlepath/poteau_1.png"
       xlink:href="poteau_1.png"
       width="9"
       height="117"
       preserveAspectRatio="none"
       style="image-rendering:optimizeSpeed"
       id="image968-0-2-8-9-7"
       x="2009.838"
       y="3813.7158" />
    <image
       sodipodi:absref="/home/magnes/Dreamcast/summoning_signals/asset/RAW/map_castlepath/planche_2.png"
       xlink:href="planche_2.png"
       width="130"
       height="48"
       preserveAspectRatio="none"
       style="image-rendering:optimizeSpeed"
       id="image946-9-7-4-2-9"
       x="-2098.0259"
       y="3805.2842"
       transform="scale(-1,1)" />
    <image
       sodipodi:absref="/home/magnes/Dreamcast/summoning_signals/asset/RAW/map_castlepath/echafaud.png"
       xlink:href="echafaud.png"
       width="141"
       height="173"
       preserveAspectRatio="none"
       style="image-rendering:optimizeSpeed"
       id="image891-3-6-7-9-1-6-2"
       x="-2241.7036"
       y="3881.144"
       transform="scale(-1,1)" />
    <image
       sodipodi:absref="/home/magnes/Dreamcast/summoning_signals/asset/RAW/map_castlepath/echafaud2.png"
       xlink:href="echafaud2.png"
       transform="scale(-1,1)"
       y="3909.4482"
       x="-2159.5029"
       id="image902-2-9-9-7-2"
       style="image-rendering:optimizeSpeed"
       preserveAspectRatio="none"
       height="177"
       width="116" />
    <image
       sodipodi:absref="/home/magnes/Dreamcast/summoning_signals/asset/RAW/map_castlepath/m4.png"
       xlink:href="m4.png"
       width="199.25316"
       height="495"
       preserveAspectRatio="none"
       style="image-rendering:optimizeSpeed"
       id="image1390-5-6"
       x="-1477.7299"
       y="3001.8083"
       transform="scale(-1,1)" />
    <image
       sodipodi:absref="/home/magnes/Dreamcast/summoning_signals/asset/RAW/map_castlepath/../icon/arrow_red.png"
       xlink:href="../icon/arrow_red.png"
       transform="scale(1,-1)"
       warp="mountainpath"
       width="64"
       height="64"
       preserveAspectRatio="none"
       style="image-rendering:optimizeSpeed"
       id="warp-4"
       x="2106.5713"
       y="-3973.4287" />
    <image
       sodipodi:absref="/home/magnes/Dreamcast/summoning_signals/asset/RAW/map_castlepath/echelle1.png"
       xlink:href="echelle1.png"
       y="2461.1431"
       x="-1217.9285"
       id="image913-1-0-06"
       style="image-rendering:optimizeSpeed"
       preserveAspectRatio="none"
       height="132"
       width="43"
       transform="scale(-1,1)" />
    <image
       sodipodi:absref="/home/magnes/Dreamcast/summoning_signals/asset/RAW/map_castlepath/roi.png"
       xlink:href="roi.png"
       y="3740.5264"
       x="2077.0466"
       id="image1135"
       style="image-rendering:optimizeSpeed"
       preserveAspectRatio="none"
       height="44"
       width="45"
       npcID="afficheRoi" />
    <image
       sodipodi:absref="/home/magnes/Dreamcast/summoning_signals/asset/RAW/map_castlepath/echelle1.png"
       xlink:href="echelle1.png"
       transform="scale(-1,1)"
       width="43"
       height="132"
       preserveAspectRatio="none"
       style="image-rendering:optimizeSpeed"
       id="image913-1-0-0-6"
       x="-1814.0547"
       y="3309.5359" />
    <image
       sodipodi:absref="/home/magnes/Dreamcast/summoning_signals/asset/RAW/map_castlepath/m4.png"
       xlink:href="m4.png"
       width="264.33716"
       height="656.68671"
       preserveAspectRatio="none"
       style="image-rendering:optimizeSpeed"
       id="image1390-3-2"
       x="-2295.3774"
       y="1379.0271"
       transform="scale(-1,1)" />
    <image
       sodipodi:absref="/home/magnes/Dreamcast/summoning_signals/asset/RAW/map_castlepath/m4.png"
       xlink:href="m4.png"
       width="203.72801"
       height="506.11679"
       preserveAspectRatio="none"
       style="image-rendering:optimizeSpeed"
       id="image1390-3"
       x="-474.31946"
       y="2643.718"
       transform="rotate(-54.565692)" />
    <image
       sodipodi:absref="/home/magnes/Dreamcast/summoning_signals/asset/RAW/map_castlepath/echafaud.png"
       xlink:href="echafaud.png"
       transform="scale(-1,1)"
       y="1870.6428"
       x="-2365.8989"
       id="image891-3-6-7-6-2"
       style="image-rendering:optimizeSpeed"
       preserveAspectRatio="none"
       height="173"
       width="141" />
    <image
       sodipodi:absref="/home/magnes/Dreamcast/summoning_signals/asset/RAW/map_castlepath/echafaud2.png"
       xlink:href="echafaud2.png"
       y="2186.1594"
       x="-2052.6401"
       id="image902-6-6-3"
       style="image-rendering:optimizeSpeed"
       preserveAspectRatio="none"
       height="177"
       width="116"
       transform="scale(-1,1)" />
    <image
       sodipodi:absref="/home/magnes/Dreamcast/summoning_signals/asset/RAW/map_castlepath/echelle2.png"
       xlink:href="echelle2.png"
       width="117"
       height="52"
       preserveAspectRatio="none"
       style="image-rendering:optimizeSpeed"
       id="image924-3-3"
       x="-1987.4801"
       y="2172.7915"
       transform="scale(-1,1)" />
    <image
       sodipodi:absref="/home/magnes/Dreamcast/summoning_signals/asset/RAW/map_castlepath/echafaud.png"
       xlink:href="echafaud.png"
       transform="scale(-1,1)"
       y="2075.0225"
       x="-2089.3838"
       id="image891-3-6-5-6-9-5-6"
       style="image-rendering:optimizeSpeed"
       preserveAspectRatio="none"
       height="173"
       width="141" />
    <image
       sodipodi:absref="/home/magnes/Dreamcast/summoning_signals/asset/RAW/map_castlepath/poteau_1.png"
       xlink:href="poteau_1.png"
       width="9"
       height="117"
       preserveAspectRatio="none"
       style="image-rendering:optimizeSpeed"
       id="image968-5-7"
       x="1779.0339"
       y="2208.4692" />
    <image
       sodipodi:absref="/home/magnes/Dreamcast/summoning_signals/asset/RAW/map_castlepath/planche_3.png"
       xlink:href="planche_3.png"
       y="2176.3723"
       x="1733.4479"
       id="image957-5-2-9-5"
       style="image-rendering:optimizeSpeed"
       preserveAspectRatio="none"
       height="64"
       width="58" />
    <image
       sodipodi:absref="/home/magnes/Dreamcast/summoning_signals/asset/RAW/map_castlepath/poteau_1.png"
       xlink:href="poteau_1.png"
       width="9"
       height="117"
       preserveAspectRatio="none"
       style="image-rendering:optimizeSpeed"
       id="image968-5-7-6"
       x="1875.9928"
       y="2175.7534" />
    <image
       sodipodi:absref="/home/magnes/Dreamcast/summoning_signals/asset/RAW/map_castlepath/planche_1.png"
       xlink:href="planche_1.png"
       width="118"
       height="54"
       preserveAspectRatio="none"
       style="image-rendering:optimizeSpeed"
       id="image935-1-3-9-6-5"
       x="1780.0765"
       y="2170.8879" />
    <image
       sodipodi:absref="/home/magnes/Dreamcast/summoning_signals/asset/RAW/map_castlepath/poteau_1.png"
       xlink:href="poteau_1.png"
       width="9"
       height="117"
       preserveAspectRatio="none"
       style="image-rendering:optimizeSpeed"
       id="image968-5-7-6-2"
       x="1875.9928"
       y="2281.8193" />
    <image
       sodipodi:absref="/home/magnes/Dreamcast/summoning_signals/asset/RAW/map_castlepath/planche_1.png"
       xlink:href="planche_1.png"
       width="118"
       height="54"
       preserveAspectRatio="none"
       style="image-rendering:optimizeSpeed"
       id="image935-1-3-9-6-5-9"
       x="1721.4878"
       y="2183.0098" />
    <image
       sodipodi:absref="/home/magnes/Dreamcast/summoning_signals/asset/RAW/map_castlepath/echafaud.png"
       xlink:href="echafaud.png"
       transform="scale(-1,1)"
       y="1963.9056"
       x="-2089.3838"
       id="image891-3-6-5-6-9-5-6-1"
       style="image-rendering:optimizeSpeed"
       preserveAspectRatio="none"
       height="173"
       width="141" />
    <image
       sodipodi:absref="/home/magnes/Dreamcast/summoning_signals/asset/RAW/map_castlepath/echelle2.png"
       xlink:href="echelle2.png"
       width="117"
       height="52"
       preserveAspectRatio="none"
       style="image-rendering:optimizeSpeed"
       id="image924-2-5-5-7"
       x="2170.7834"
       y="1899.6604" />
    <image
       sodipodi:absref="/home/magnes/Dreamcast/summoning_signals/asset/RAW/map_castlepath/echelle2.png"
       xlink:href="echelle2.png"
       width="117"
       height="52"
       preserveAspectRatio="none"
       style="image-rendering:optimizeSpeed"
       id="image924-2-5-5-7-0"
       x="2091.9629"
       y="1932.827" />
    <image
       sodipodi:absref="/home/magnes/Dreamcast/summoning_signals/asset/RAW/map_castlepath/echelle2.png"
       xlink:href="echelle2.png"
       width="117"
       height="52"
       preserveAspectRatio="none"
       style="image-rendering:optimizeSpeed"
       id="image924-2-5-5-7-0-9"
       x="2008.8711"
       y="1968.3422" />
    <image
       sodipodi:absref="/home/magnes/Dreamcast/summoning_signals/asset/RAW/map_castlepath/echafaud.png"
       xlink:href="echafaud.png"
       transform="scale(-1,1)"
       y="1760.865"
       x="-2366.1655"
       id="image891-3-6-7-6-2-6"
       style="image-rendering:optimizeSpeed"
       preserveAspectRatio="none"
       height="173"
       width="141" />
    <image
       sodipodi:absref="/home/magnes/Dreamcast/summoning_signals/asset/RAW/map_castlepath/echafaud2.png"
       xlink:href="echafaud2.png"
       width="116"
       height="177"
       preserveAspectRatio="none"
       style="image-rendering:optimizeSpeed"
       id="image902-2-9-9-2-6"
       x="-620.9281"
       y="1394.2332"
       transform="scale(-1,1)" />
    <image
       sodipodi:absref="/home/magnes/Dreamcast/summoning_signals/asset/RAW/map_castlepath/echafaud2.png"
       xlink:href="echafaud2.png"
       y="1545.7229"
       x="629.2666"
       id="image902-2-4-7"
       style="image-rendering:optimizeSpeed"
       preserveAspectRatio="none"
       height="177"
       width="116" />
    <image
       sodipodi:absref="/home/magnes/Dreamcast/summoning_signals/asset/RAW/map_castlepath/poteau_1.png"
       xlink:href="poteau_1.png"
       y="1643.5667"
       x="752.93292"
       id="image968-0-2-8-92"
       style="image-rendering:optimizeSpeed"
       preserveAspectRatio="none"
       height="117"
       width="9" />
    <image
       sodipodi:absref="/home/magnes/Dreamcast/summoning_signals/asset/RAW/map_castlepath/planche_2.png"
       xlink:href="planche_2.png"
       transform="scale(-1,1)"
       y="1626.0168"
       x="-864.93671"
       id="image946-9-7-4-0"
       style="image-rendering:optimizeSpeed"
       preserveAspectRatio="none"
       height="48"
       width="130" />
    <image
       sodipodi:absref="/home/magnes/Dreamcast/summoning_signals/asset/RAW/map_castlepath/planche_1.png"
       xlink:href="planche_1.png"
       transform="scale(-1,1)"
       y="1632.3025"
       x="-828.93671"
       id="wood"
       style="image-rendering:optimizeSpeed"
       preserveAspectRatio="none"
       height="54"
       width="118" />
    <image
       sodipodi:absref="/home/magnes/Dreamcast/summoning_signals/asset/RAW/map_castlepath/planche_3.png"
       xlink:href="planche_3.png"
       transform="scale(-1,1)"
       y="1585.4985"
       x="-733.61737"
       id="image957-5-2-6-0-3"
       style="image-rendering:optimizeSpeed"
       preserveAspectRatio="none"
       height="64"
       width="58" />
    <image
       sodipodi:absref="/home/magnes/Dreamcast/summoning_signals/asset/RAW/map_castlepath/echelle2.png"
       xlink:href="echelle2.png"
       transform="scale(-1,1)"
       y="1592.0193"
       x="-762.25006"
       id="image924-1-6-7"
       style="image-rendering:optimizeSpeed"
       preserveAspectRatio="none"
       height="52"
       width="117" />
    <image
       sodipodi:absref="/home/magnes/Dreamcast/summoning_signals/asset/RAW/map_castlepath/echafaud.png"
       xlink:href="echafaud.png"
       y="1377.5527"
       x="924.69562"
       id="image891-3-6-5-6-0-3-4-8-9"
       style="image-rendering:optimizeSpeed"
       preserveAspectRatio="none"
       height="173"
       width="141" />
    <image
       sodipodi:absref="/home/magnes/Dreamcast/summoning_signals/asset/RAW/map_castlepath/echafaud.png"
       xlink:href="echafaud.png"
       y="1420.7922"
       x="824.87488"
       id="image891-3-6-5-6-0-3-4-8"
       style="image-rendering:optimizeSpeed"
       preserveAspectRatio="none"
       height="173"
       width="141"
       npcID="sickobject" />
    <image
       sodipodi:absref="/home/magnes/Dreamcast/summoning_signals/asset/RAW/map_castlepath/planche_1.png"
       xlink:href="planche_1.png"
       width="118"
       height="54"
       preserveAspectRatio="none"
       style="image-rendering:optimizeSpeed"
       id="image935-1-3-9-6-0-8"
       x="770.38599"
       y="1470.9894" />
    <image
       sodipodi:absref="/home/magnes/Dreamcast/summoning_signals/asset/RAW/map_castlepath/echafaud.png"
       xlink:href="echafaud.png"
       y="1265.4258"
       x="924.69562"
       id="image891-3-6-5-6-0-3-4-8-9-7"
       style="image-rendering:optimizeSpeed"
       preserveAspectRatio="none"
       height="173"
       width="141" />
    <image
       sodipodi:absref="/home/magnes/Dreamcast/summoning_signals/asset/RAW/map_castlepath/m4.png"
       xlink:href="m4.png"
       transform="scale(-1,1)"
       y="528.78406"
       x="-1090.8998"
       id="image1390-3-2-2"
       style="display:inline;image-rendering:optimizeSpeed"
       preserveAspectRatio="none"
       height="656.68671"
       width="264.33716" />
    <image
       sodipodi:absref="/home/magnes/Dreamcast/summoning_signals/asset/RAW/map_castlepath/echafaud.png"
       xlink:href="echafaud.png"
       y="1154.8141"
       x="924.69562"
       id="image891-3-6-5-6-0-3-4-8-9-3"
       style="image-rendering:optimizeSpeed"
       preserveAspectRatio="none"
       height="173"
       width="141" />
    <image
       sodipodi:absref="/home/magnes/Dreamcast/summoning_signals/asset/RAW/map_castlepath/echafaud.png"
       xlink:href="echafaud.png"
       y="1042.6871"
       x="924.69562"
       id="image891-3-6-5-6-0-3-4-8-9-7-6"
       style="image-rendering:optimizeSpeed"
       preserveAspectRatio="none"
       height="173"
       width="141" />
    <image
       sodipodi:absref="/home/magnes/Dreamcast/summoning_signals/asset/RAW/map_castlepath/planche_1.png"
       xlink:href="planche_1.png"
       width="118"
       height="54"
       preserveAspectRatio="none"
       style="image-rendering:optimizeSpeed"
       id="image935-1-3-9-6-0"
       x="-687.15033"
       y="1451.6519"
       transform="scale(-1,1)" />
    <image
       sodipodi:absref="/home/magnes/Dreamcast/summoning_signals/asset/RAW/map_castlepath/tower.png"
       xlink:href="tower.png"
       width="174.69687"
       height="347.4418"
       preserveAspectRatio="none"
       style="display:inline;image-rendering:optimizeSpeed"
       id="image1625-3"
       x="-473.55295"
       y="959.65619"
       transform="scale(-1,1)" />
    <image
       sodipodi:absref="/home/magnes/Dreamcast/summoning_signals/asset/RAW/map_castlepath/echafaud.png"
       xlink:href="echafaud.png"
       y="1240.5358"
       x="365.34158"
       id="image891-3-6-5-3-1-1"
       style="image-rendering:optimizeSpeed"
       preserveAspectRatio="none"
       height="173"
       width="141" />
    <image
       sodipodi:absref="/home/magnes/Dreamcast/summoning_signals/asset/RAW/map_castlepath/tower_doorclose.png"
       xlink:href="tower_doorclose.png"
       npcID="tower_door"
       width="27.747459"
       height="67.386696"
       preserveAspectRatio="none"
       style="display:inline;image-rendering:optimizeSpeed"
       id="image1676-6"
       x="-411.69772"
       y="1216.2242"
       transform="scale(-1,1)" />
    <image
       sodipodi:absref="/home/magnes/Dreamcast/summoning_signals/asset/RAW/map_castlepath/echafaud.png"
       xlink:href="echafaud.png"
       y="1264.8214"
       x="416.77057"
       id="image891-3-6-5-7-2"
       style="image-rendering:optimizeSpeed"
       preserveAspectRatio="none"
       height="173"
       width="141" />
    <image
       sodipodi:absref="/home/magnes/Dreamcast/summoning_signals/asset/RAW/map_castlepath/echelle1.png"
       xlink:href="echelle1.png"
       transform="scale(-1,1)"
       width="43"
       height="132"
       preserveAspectRatio="none"
       style="image-rendering:optimizeSpeed"
       id="image913-1-0-06-6"
       x="-550.12048"
       y="1295.3793" />
    <image
       sodipodi:absref="/home/magnes/Dreamcast/summoning_signals/asset/RAW/map_castlepath/echelle1.png"
       xlink:href="echelle1.png"
       y="3424.7144"
       x="-1827.2144"
       id="image913-1-0-0-6-7"
       style="image-rendering:optimizeSpeed"
       preserveAspectRatio="none"
       height="132"
       width="43"
       transform="scale(-1,1)" />
    <image
       sodipodi:absref="/home/magnes/Dreamcast/summoning_signals/asset/RAW/map_castlepath/poteau_1.png"
       xlink:href="poteau_1.png"
       width="9"
       height="117"
       preserveAspectRatio="none"
       style="display:inline;image-rendering:optimizeSpeed"
       id="image968-5-1"
       x="1011.8453"
       y="3140.3564" />
    <image
       sodipodi:absref="/home/magnes/Dreamcast/summoning_signals/asset/RAW/map_castlepath/echafaud.png"
       xlink:href="echafaud.png"
       y="3024.2429"
       x="1123.829"
       id="image891-3-6-5-3-1-7"
       style="display:inline;image-rendering:optimizeSpeed"
       preserveAspectRatio="none"
       height="173"
       width="141" />
    <image
       sodipodi:absref="/home/magnes/Dreamcast/summoning_signals/asset/RAW/map_castlepath/planche_2.png"
       xlink:href="planche_2.png"
       width="130"
       height="48"
       preserveAspectRatio="none"
       style="display:inline;image-rendering:optimizeSpeed"
       id="image946-4-2"
       x="1027.1454"
       y="3075.4236" />
    <image
       sodipodi:absref="/home/magnes/Dreamcast/summoning_signals/asset/RAW/map_castlepath/planche_1.png"
       xlink:href="planche_1.png"
       width="118"
       height="54"
       preserveAspectRatio="none"
       style="display:inline;image-rendering:optimizeSpeed"
       id="image935-7-0"
       x="1063.1454"
       y="3081.7092" />
    <image
       sodipodi:absref="/home/magnes/Dreamcast/summoning_signals/asset/RAW/map_castlepath/echafaud.png"
       xlink:href="echafaud.png"
       transform="scale(-1,1)"
       y="3142.8147"
       x="-893.40051"
       id="image891-3-6-7-6-23"
       style="display:inline;image-rendering:optimizeSpeed"
       preserveAspectRatio="none"
       height="173"
       width="141" />
    <image
       sodipodi:absref="/home/magnes/Dreamcast/summoning_signals/asset/RAW/map_castlepath/planche_2.png"
       xlink:href="planche_2.png"
       y="3157.8691"
       x="807.66589"
       id="image946-9-5-7"
       style="display:inline;image-rendering:optimizeSpeed"
       preserveAspectRatio="none"
       height="48"
       width="130" />
    <image
       sodipodi:absref="/home/magnes/Dreamcast/summoning_signals/asset/RAW/map_castlepath/planche_1.png"
       xlink:href="planche_1.png"
       y="3164.1548"
       x="843.66589"
       id="image935-1-6-5"
       style="display:inline;image-rendering:optimizeSpeed"
       preserveAspectRatio="none"
       height="54"
       width="118" />
    <image
       sodipodi:absref="/home/magnes/Dreamcast/summoning_signals/asset/RAW/map_castlepath/planche_3.png"
       xlink:href="planche_3.png"
       y="3101.1885"
       x="996.56384"
       id="image957-5-2-9-9"
       style="display:inline;image-rendering:optimizeSpeed"
       preserveAspectRatio="none"
       height="64"
       width="58" />
    <image
       sodipodi:absref="/home/magnes/Dreamcast/summoning_signals/asset/RAW/map_castlepath/echelle2.png"
       xlink:href="echelle2.png"
       width="117"
       height="52"
       preserveAspectRatio="none"
       style="display:inline;image-rendering:optimizeSpeed"
       id="image924-3-2"
       x="967.93103"
       y="3107.7092" />
    <image
       sodipodi:absref="/home/magnes/Dreamcast/summoning_signals/asset/RAW/map_castlepath/planche_3.png"
       xlink:href="planche_3.png"
       y="3014.998"
       x="1157.2057"
       id="image957-5-4-2"
       style="display:inline;image-rendering:optimizeSpeed"
       preserveAspectRatio="none"
       height="64"
       width="58" />
    <image
       sodipodi:absref="/home/magnes/Dreamcast/summoning_signals/asset/RAW/map_castlepath/echelle2.png"
       xlink:href="echelle2.png"
       y="3126.1716"
       x="890.82898"
       id="image924-2-5-8"
       style="display:inline;image-rendering:optimizeSpeed"
       preserveAspectRatio="none"
       height="52"
       width="117" />
    <image
       sodipodi:absref="/home/magnes/Dreamcast/summoning_signals/asset/RAW/map_castlepath/m3.png"
       xlink:href="m3.png"
       y="-2399.1831"
       x="-3029.6213"
       id="image1379-0-2"
       style="display:inline;image-rendering:optimizeSpeed"
       preserveAspectRatio="none"
       height="482.2536"
       width="274.75577"
       transform="rotate(-132.6431)" />
    <image
       sodipodi:absref="/home/magnes/Dreamcast/summoning_signals/asset/RAW/map_castlepath/echafaud.png"
       xlink:href="echafaud.png"
       width="141"
       height="173"
       preserveAspectRatio="none"
       style="display:inline;image-rendering:optimizeSpeed"
       id="image891-3-6-7-6-7-9"
       x="592.13446"
       y="3194.748" />
    <image
       sodipodi:absref="/home/magnes/Dreamcast/summoning_signals/asset/RAW/map_castlepath/echelle2.png"
       xlink:href="echelle2.png"
       width="117"
       height="52"
       preserveAspectRatio="none"
       style="display:inline;image-rendering:optimizeSpeed"
       id="image924-2-5-5-73"
       x="687.31726"
       y="3176.5154" />
    <image
       sodipodi:absref="/home/magnes/Dreamcast/summoning_signals/asset/RAW/map_castlepath/echafaud2.png"
       xlink:href="echafaud2.png"
       width="116"
       height="177"
       preserveAspectRatio="none"
       style="display:inline;image-rendering:optimizeSpeed"
       id="image902-2-9-9-73-6"
       x="519.1264"
       y="3249.1375" />
    <image
       sodipodi:absref="/home/magnes/Dreamcast/summoning_signals/asset/RAW/map_castlepath/echafaud.png"
       xlink:href="echafaud.png"
       y="3309.2144"
       x="420.21429"
       id="image891-3-6-7-6-7-9-7"
       style="display:inline;image-rendering:optimizeSpeed"
       preserveAspectRatio="none"
       height="173"
       width="141" />
    <image
       sodipodi:absref="/home/magnes/Dreamcast/summoning_signals/asset/RAW/map_castlepath/planche_1.png"
       xlink:href="planche_1.png"
       width="118"
       height="54"
       preserveAspectRatio="none"
       style="display:inline;image-rendering:optimizeSpeed"
       id="image935-1-3-9-6-2-1"
       x="52.969746"
       y="3338.4404"
       transform="rotate(-7.2852872)" />
    <image
       sodipodi:absref="/home/magnes/Dreamcast/summoning_signals/asset/RAW/map_castlepath/echelle2.png"
       xlink:href="echelle2.png"
       width="117"
       height="52"
       preserveAspectRatio="none"
       style="display:inline;image-rendering:optimizeSpeed"
       id="image924-1-6-7-0"
       x="702.92859"
       y="1496.5" />
    <image
       sodipodi:absref="/home/magnes/Dreamcast/summoning_signals/asset/RAW/map_castlepath/echafaud.png"
       xlink:href="echafaud.png"
       width="141"
       height="173"
       preserveAspectRatio="none"
       style="display:inline;image-rendering:optimizeSpeed"
       id="image891-3-6-5-6-0-3-4-8-9-3-5"
       x="1015.0028"
       y="894.15405" />
    <image
       sodipodi:absref="/home/magnes/Dreamcast/summoning_signals/asset/RAW/map_castlepath/m4.png"
       xlink:href="m4.png"
       y="133.08522"
       x="1099.2599"
       id="image1390-3-2-2-0"
       style="display:inline;image-rendering:optimizeSpeed"
       preserveAspectRatio="none"
       height="656.68671"
       width="264.33716" />
    <image
       sodipodi:absref="/home/magnes/Dreamcast/summoning_signals/asset/RAW/map_castlepath/echafaud.png"
       xlink:href="echafaud.png"
       width="141"
       height="173"
       preserveAspectRatio="none"
       style="display:inline;image-rendering:optimizeSpeed"
       id="image891-3-6-5-6-0-3-4-8-9-7-6-3"
       x="1015.0028"
       y="782.0271" />
    <image
       sodipodi:absref="/home/magnes/Dreamcast/summoning_signals/asset/RAW/map_castlepath/echafaud.png"
       xlink:href="echafaud.png"
       width="141"
       height="173"
       preserveAspectRatio="none"
       style="display:inline;image-rendering:optimizeSpeed"
       id="image891-3-6-5-6-0-3-4-8-9-3-56"
       x="1015.0334"
       y="673.23682" />
    <image
       sodipodi:absref="/home/magnes/Dreamcast/summoning_signals/asset/RAW/map_castlepath/echafaud.png"
       xlink:href="echafaud.png"
       width="141"
       height="173"
       preserveAspectRatio="none"
       style="display:inline;image-rendering:optimizeSpeed"
       id="image891-3-6-5-6-0-3-4-8-9-7-6-2"
       x="1015.0334"
       y="561.10986" />
    <image
       sodipodi:absref="/home/magnes/Dreamcast/summoning_signals/asset/RAW/map_castlepath/echelle1.png"
       xlink:href="echelle1.png"
       width="43"
       height="132"
       preserveAspectRatio="none"
       style="display:inline;image-rendering:optimizeSpeed"
       id="image913-8-7-1-9"
       x="1012.7857"
       y="947.57141" />
    <image
       sodipodi:absref="/home/magnes/Dreamcast/summoning_signals/asset/RAW/map_castlepath/echelle1.png"
       xlink:href="echelle1.png"
       y="236.85735"
       x="1134.7502"
       id="image913-6-3-0"
       style="display:inline;image-rendering:optimizeSpeed"
       preserveAspectRatio="none"
       height="132"
       width="43" />
    <image
       sodipodi:absref="/home/magnes/Dreamcast/summoning_signals/asset/RAW/map_castlepath/echelle1.png"
       xlink:href="echelle1.png"
       y="353.64273"
       x="1120.8215"
       id="image913-1-0-93"
       style="display:inline;image-rendering:optimizeSpeed"
       preserveAspectRatio="none"
       height="132"
       width="43" />
    <image
       sodipodi:absref="/home/magnes/Dreamcast/summoning_signals/asset/RAW/map_castlepath/echelle1.png"
       xlink:href="echelle1.png"
       y="465.42838"
       x="1107.9641"
       id="image913-8-7-6"
       style="display:inline;image-rendering:optimizeSpeed"
       preserveAspectRatio="none"
       height="132"
       width="43" />
    <image
       sodipodi:absref="/home/magnes/Dreamcast/summoning_signals/asset/RAW/map_castlepath/echelle1.png"
       xlink:href="echelle1.png"
       y="119.15891"
       x="1148.8556"
       id="image913-6-3-0-0"
       style="display:inline;image-rendering:optimizeSpeed"
       preserveAspectRatio="none"
       height="132"
       width="43" />
    <image
       sodipodi:absref="/home/magnes/Dreamcast/summoning_signals/asset/RAW/map_castlepath/echelle1.png"
       xlink:href="echelle1.png"
       y="5.5167542"
       x="1162.4927"
       id="image913-6-3-0-6"
       style="display:inline;image-rendering:optimizeSpeed"
       preserveAspectRatio="none"
       height="132"
       width="43" />
    <image
       sodipodi:absref="/home/magnes/Dreamcast/summoning_signals/asset/RAW/map_castlepath/../icon/arrow_red.png"
       xlink:href="../icon/arrow_red.png"
       y="16.283243"
       x="1157.0435"
       id="warp-4-2"
       style="display:inline;image-rendering:optimizeSpeed"
       preserveAspectRatio="none"
       height="64"
       width="64"
       warp="queen" />
    <image
       sodipodi:absref="/home/magnes/Dreamcast/summoning_signals/asset/RAW/map_castlepath/echelle1.png"
       xlink:href="echelle1.png"
       y="3361.4033"
       x="417.49158"
       id="image913-8-7-36"
       style="display:inline;image-rendering:optimizeSpeed"
       preserveAspectRatio="none"
       height="132"
       width="43" />
    <image
       sodipodi:absref="/home/magnes/Dreamcast/summoning_signals/asset/RAW/map_castlepath/m3.png"
       xlink:href="m3.png"
       transform="rotate(34.875167)"
       width="334.22476"
       height="586.63409"
       preserveAspectRatio="none"
       style="display:inline;image-rendering:optimizeSpeed"
       id="image1379-1-6-5"
       x="1626.6592"
       y="1529.5448" />
    <image
       sodipodi:absref="/home/magnes/Dreamcast/summoning_signals/asset/RAW/map_castlepath/roper_top3.png"
       xlink:href="roper_top3.png"
       width="96"
       height="191"
       preserveAspectRatio="none"
       style="image-rendering:optimizeSpeed"
       id="image1130"
       x="2714.2292"
       y="2774.1401" />
    <image
       sodipodi:absref="/home/magnes/Dreamcast/summoning_signals/asset/RAW/map_castlepath/rope.png"
       xlink:href="rope.png"
       npcID="rope"
       width="8"
       height="32"
       preserveAspectRatio="none"
       style="image-rendering:optimizeSpeed"
       id="image1222"
       x="187.7366"
       y="3398.6326" />
    <image
       sodipodi:absref="/home/magnes/Dreamcast/summoning_signals/asset/RAW/map_castlepath/roper_leg.png"
       xlink:href="roper_leg.png"
       transform="scale(-1,1)"
       y="2324.2856"
       x="-515.71429"
       id="image1163-6"
       style="display:inline;image-rendering:optimizeSpeed"
       preserveAspectRatio="none"
       height="120"
       width="160" />
    <image
       sodipodi:absref="/home/magnes/Dreamcast/summoning_signals/asset/RAW/map_castlepath/roper_top2.png"
       xlink:href="roper_top2.png"
       transform="scale(-1,1)"
       width="121"
       height="190"
       preserveAspectRatio="none"
       style="image-rendering:optimizeSpeed"
       id="image1141"
       x="-529.30548"
       y="2161.0422" />
    <image
       sodipodi:absref="/home/magnes/Dreamcast/summoning_signals/asset/RAW/map_castlepath/roper_leg.png"
       xlink:href="roper_leg.png"
       y="3489.2141"
       x="224.35715"
       id="image1031"
       style="image-rendering:optimizeSpeed"
       preserveAspectRatio="none"
       height="123"
       width="167" />
    <image
       sodipodi:absref="/home/magnes/Dreamcast/summoning_signals/asset/RAW/map_castlepath/roper_top1.png"
       xlink:href="roper_top1.png"
       y="3342.8572"
       x="176.57143"
       id="image1020"
       style="image-rendering:optimizeSpeed"
       preserveAspectRatio="none"
       height="175"
       width="169"
       npcID="roper" />
    <image
       sodipodi:absref="/home/magnes/Dreamcast/summoning_signals/asset/RAW/map_castlepath/worker260.png"
       xlink:href="worker260.png"
       npcID="worker"
       width="37"
       height="54"
       preserveAspectRatio="none"
       style="display:inline;image-rendering:optimizeSpeed"
       id="image1020-3"
       x="2290.5984"
       y="1764.0117" />
    <image
       sodipodi:absref="/home/magnes/Dreamcast/summoning_signals/asset/RAW/map_castlepath/templar1.png"
       xlink:href="templar1.png"
       npcID="guard"
       width="56"
       height="94"
       preserveAspectRatio="none"
       style="image-rendering:optimizeSpeed"
       id="image1020-36"
       x="747.29211"
       y="1431.6593" />
  </g>
  <g
     inkscape:groupmode="layer"
     id="layer2"
     inkscape:label="Collision"
     style="display:inline">
    <path
       style="fill:none;stroke:#000000;stroke-width:1px;stroke-linecap:butt;stroke-linejoin:miter;stroke-opacity:1"
       d="M 1996.6603,4014.1421 1659.2694,3717.1573 1499.6653,4030.3046 Z"
       id="path904"
       inkscape:connector-curvature="0" />
    <path
       style="fill:none;stroke:#000000;stroke-width:1px;stroke-linecap:butt;stroke-linejoin:miter;stroke-opacity:1"
       d="M 1681.4927,3759.5837 1729.9801,3351.4821 1432.9952,3274.7105 Z"
       id="path906"
       inkscape:connector-curvature="0" />
    <path
       style="fill:none;stroke:#000000;stroke-width:1px;stroke-linecap:butt;stroke-linejoin:miter;stroke-opacity:1"
       d="M 1792.6095,3212.0811 2117.8786,3684.8324 2095.6553,3226.2232 Z"
       id="path908"
       inkscape:connector-curvature="0"
       sodipodi:nodetypes="cccc" />
    <path
       style="fill:none;stroke:#000000;stroke-width:1px;stroke-linecap:butt;stroke-linejoin:miter;stroke-opacity:1"
       d="M 2081.5131,3462.5989 2140.102,3820.1929 2445.168,4030.3046 Z"
       id="path910"
       inkscape:connector-curvature="0" />
    <path
       style="fill:none;stroke:#000000;stroke-width:1px;stroke-linecap:butt;stroke-linejoin:miter;stroke-opacity:1"
       d="M 1849.1781,3226.2232 1368.3455,2941.3602 V 2694.8829 Z"
       id="path912"
       inkscape:connector-curvature="0" />
    <path
       style="fill:none;stroke:#000000;stroke-width:1px;stroke-linecap:butt;stroke-linejoin:miter;stroke-opacity:1"
       d="M 1485.5232,3300.9745 1305.716,3089.8526 1111.7667,3268.6496 Z"
       id="path914"
       inkscape:connector-curvature="0"
       sodipodi:nodetypes="cccc" />
    <path
       style="fill:none;stroke:#000000;stroke-width:1px;stroke-linecap:butt;stroke-linejoin:miter;stroke-opacity:1"
       d="M 1198.3873,2982.5239 1152.1728,2569.624 659.21839,2700.9439 Z"
       id="path918"
       inkscape:connector-curvature="0"
       sodipodi:nodetypes="cccc" />
    <path
       style="fill:none;stroke:#000000;stroke-width:1px;stroke-linecap:butt;stroke-linejoin:miter;stroke-opacity:1"
       d="M 628.82971,2701.3325 639.95795,2535.4777 867.30981,2830.2434 Z"
       id="path920"
       inkscape:connector-curvature="0"
       sodipodi:nodetypes="cccc" />
    <path
       style="fill:none;stroke:#000000;stroke-width:1px;stroke-linecap:butt;stroke-linejoin:miter;stroke-opacity:1"
       d="M 1382.4876,2723.1672 1849.1781,2304.9641 1925.9497,2367.5935 Z"
       id="path922"
       inkscape:connector-curvature="0" />
    <path
       style="fill:none;stroke:#000000;stroke-width:1px;stroke-linecap:butt;stroke-linejoin:miter;stroke-opacity:1"
       d="M 745.69571,2282.8109 629.0371,2549.89 947.03295,2424.5789 Z"
       id="path920-1"
       inkscape:connector-curvature="0"
       sodipodi:nodetypes="cccc" />
    <path
       style="fill:none;stroke:#000000;stroke-width:1px;stroke-linecap:butt;stroke-linejoin:miter;stroke-opacity:1"
       d="M 1129.5663,1876.7293 1133.607,2353.5213 1541.7086,2335.3386 Z"
       id="path920-1-2"
       inkscape:connector-curvature="0"
       sodipodi:nodetypes="cccc" />
    <path
       style="fill:none;stroke:#000000;stroke-width:1px;stroke-linecap:butt;stroke-linejoin:miter;stroke-opacity:1"
       d="M 1909.0852,1940.1681 889.77477,1622.8383 1535.287,2361.9644 Z"
       id="path920-1-2-9"
       inkscape:connector-curvature="0"
       sodipodi:nodetypes="cccc" />
    <path
       style="fill:none;stroke:#000000;stroke-width:1px;stroke-linecap:butt;stroke-linejoin:miter;stroke-opacity:1"
       d="M 933.85605,2426.377 893.29912,1845.4165 532.91576,1604.968 Z"
       id="path920-1-3"
       inkscape:connector-curvature="0"
       sodipodi:nodetypes="cccc" />
    <path
       style="fill:none;stroke:#000000;stroke-width:1px;stroke-linecap:butt;stroke-linejoin:miter;stroke-opacity:1"
       d="M 1856.4484,2342.7574 2432.2353,2189.2141 2466.5806,2425.5898 Z"
       id="path908-1"
       inkscape:connector-curvature="0"
       sodipodi:nodetypes="cccc" />
    <path
       style="fill:none;stroke:#000000;stroke-width:1px;stroke-linecap:butt;stroke-linejoin:miter;stroke-opacity:1"
       d="M 2079.2622,2073.6608 2507.5668,1861.5287 2079.2622,2312.0567 Z"
       id="path908-1-9"
       inkscape:connector-curvature="0"
       sodipodi:nodetypes="cccc" />
    <path
       style="fill:none;stroke:#000000;stroke-width:1px;stroke-linecap:butt;stroke-linejoin:miter;stroke-opacity:1"
       d="M 2370.4856,1529.7753 2519.9881,1511.5925 2380.5871,1956.0596 Z"
       id="path908-1-9-4"
       inkscape:connector-curvature="0"
       sodipodi:nodetypes="cccc" />
    <path
       style="fill:none;stroke:#000000;stroke-width:1px;stroke-linecap:butt;stroke-linejoin:miter;stroke-opacity:1"
       d="M 2218.7947,1442.5141 2206.6728,1884.9608 1832.9165,1973.8542 Z"
       id="path908-1-9-4-7"
       inkscape:connector-curvature="0"
       sodipodi:nodetypes="cccc" />
    <path
       style="fill:none;stroke:#000000;stroke-width:1px;stroke-linecap:butt;stroke-linejoin:miter;stroke-opacity:1"
       d="M 2179.8171,1667.4175 2315.1775,1633.0723 2418.2131,1732.0672 Z"
       id="path908-1-9-4-8"
       inkscape:connector-curvature="0"
       sodipodi:nodetypes="cccc" />
    <path
       style="fill:none;stroke:#000000;stroke-width:1px;stroke-linecap:butt;stroke-linejoin:miter;stroke-opacity:1"
       d="M 1250.0121,1422.5084 834.77285,1630.4579 1365.1277,1654.396 Z"
       id="path920-1-2-9-4"
       inkscape:connector-curvature="0"
       sodipodi:nodetypes="cccc" />
    <path
       style="fill:none;stroke:#000000;stroke-width:1px;stroke-linecap:butt;stroke-linejoin:miter;stroke-opacity:1"
       d="M 1270.4677,740.52847 1116.2365,1064.3706 1096.6797,1523.9594 Z"
       id="path920-1-2-9-4-5"
       inkscape:connector-curvature="0"
       sodipodi:nodetypes="cccc" />
    <path
       style="fill:none;stroke:#000000;stroke-width:1px;stroke-linecap:butt;stroke-linejoin:miter;stroke-opacity:1"
       d="M 728.38375,1503.6631 922.82853,1092.93 912.21078,1406.5666 Z"
       id="path920-1-2-9-4-5-0"
       inkscape:connector-curvature="0"
       sodipodi:nodetypes="cccc" />
    <path
       style="fill:none;stroke:#000000;stroke-width:1px;stroke-linecap:butt;stroke-linejoin:miter;stroke-opacity:1"
       d="M 557.96966,1370.2422 629.62398,929.67378 734.48923,1500.5019 Z"
       id="path920-1-2-9-4-5-0-3"
       inkscape:connector-curvature="0"
       sodipodi:nodetypes="cccc" />
    <path
       style="fill:none;stroke:#000000;stroke-width:1px;stroke-linecap:butt;stroke-linejoin:miter;stroke-opacity:1"
       d="M 434.87566,1114.7734 282.27612,1203.5249 600.49892,1235.5444 Z"
       id="path920-1-2-9-4-5-0-3-1"
       inkscape:connector-curvature="0"
       sodipodi:nodetypes="cccc" />
    <path
       style="fill:none;stroke:#000000;stroke-width:1px;stroke-linecap:butt;stroke-linejoin:miter;stroke-opacity:1"
       d="M 327.33768,1539.4493 174.73814,1203.9367 359.62081,1175.347 Z"
       id="path920-1-2-9-4-5-0-3-1-5"
       inkscape:connector-curvature="0"
       sodipodi:nodetypes="cccc" />
    <path
       style="fill:none;stroke:#000000;stroke-width:1px;stroke-linecap:butt;stroke-linejoin:miter;stroke-opacity:1"
       d="M 373.99132,1532.7599 294.12277,1334.6281 632.54862,1681.8151 Z"
       id="path920-1-2-9-4-5-0-3-1-5-5"
       inkscape:connector-curvature="0"
       sodipodi:nodetypes="cccc" />
    <path
       style="display:inline;fill:none;stroke:#000000;stroke-width:1px;stroke-linecap:butt;stroke-linejoin:miter;stroke-opacity:1"
       d="M 1021.5385,2875.0972 157.14015,3363.3685 1197.9141,2981.8775 Z"
       id="path920-1-4"
       inkscape:connector-curvature="0"
       sodipodi:nodetypes="cccc" />
    <path
       style="display:inline;fill:none;stroke:#000000;stroke-width:1px;stroke-linecap:butt;stroke-linejoin:miter;stroke-opacity:1"
       d="M 1097.1398,3173.0897 598.26798,3352.9491 1287.0484,3320.572 Z"
       id="path920-7"
       inkscape:connector-curvature="0"
       sodipodi:nodetypes="cccc" />
    <path
       style="display:inline;fill:none;stroke:#000000;stroke-width:1px;stroke-linecap:butt;stroke-linejoin:miter;stroke-opacity:1"
       d="M 172.62875,3331.3221 102.34161,3573.0234 166.0704,3665.8581 Z"
       id="path920-1-36-8"
       inkscape:connector-curvature="0"
       sodipodi:nodetypes="cccc" />
    <path
       style="display:inline;fill:none;stroke:#000000;stroke-width:1px;stroke-linecap:butt;stroke-linejoin:miter;stroke-opacity:1"
       d="M 630.83885,3340.4713 488.05141,3568.9514 550.74753,3603.6679 Z"
       id="path920-1-36-8-4"
       inkscape:connector-curvature="0"
       sodipodi:nodetypes="cccc" />
    <path
       style="display:inline;fill:none;stroke:#000000;stroke-width:1.05208373px;stroke-linecap:butt;stroke-linejoin:miter;stroke-opacity:1"
       d="M 803.82366,1517.3631 750.06862,1595.8186 837.47585,1630.2572 Z"
       id="path920-1-2-9-4-1"
       inkscape:connector-curvature="0"
       sodipodi:nodetypes="cccc" />
    <path
       style="display:inline;fill:none;stroke:#000000;stroke-width:1px;stroke-linecap:butt;stroke-linejoin:miter;stroke-opacity:1"
       d="M 1129.7571,-23.076742 956.95446,287.90829 980.25477,758.92559 Z"
       id="path920-1-2-9-4-5-6"
       inkscape:connector-curvature="0"
       sodipodi:nodetypes="cccc" />
    <path
       style="display:inline;fill:none;stroke:#000000;stroke-width:1px;stroke-linecap:butt;stroke-linejoin:miter;stroke-opacity:1"
       d="M 1009.7571,604.06611 906.95447,1046.4797 1003.1119,1020.3542 Z"
       id="path920-1-2-9-4-5-1"
       inkscape:connector-curvature="0"
       sodipodi:nodetypes="cccc" />
    <path
       style="display:inline;fill:none;stroke:#000000;stroke-width:1px;stroke-linecap:butt;stroke-linejoin:miter;stroke-opacity:1"
       d="M 1168.6325,524.21312 1168.687,935.19811 1264.8444,909.07261 Z"
       id="path920-1-2-9-4-5-1-8"
       inkscape:connector-curvature="0"
       sodipodi:nodetypes="cccc" />
    <path
       style="display:inline;fill:none;stroke:#000000;stroke-width:1px;stroke-linecap:butt;stroke-linejoin:miter;stroke-opacity:1"
       d="M 1236.1279,-10.04455 1164.7538,560.94043 1213.7683,736.2435 Z"
       id="path920-1-2-9-4-5-1-8-7"
       inkscape:connector-curvature="0"
       sodipodi:nodetypes="cccc" />
    <path
       style="display:inline;fill:none;stroke:#000000;stroke-width:1px;stroke-linecap:butt;stroke-linejoin:miter;stroke-opacity:1"
       d="M 938.98496,1029.9554 907.61089,1160.9404 862.33972,1033.3863 Z"
       id="path920-1-2-9-4-5-1-8-9"
       inkscape:connector-curvature="0"
       sodipodi:nodetypes="cccc" />
    <path
       style="display:inline;fill:none;stroke:#000000;stroke-width:1px;stroke-linecap:butt;stroke-linejoin:miter;stroke-opacity:1"
       d="M 503.97083,3559.0661 149.05136,3657.2366 434.99118,3662.6586 Z"
       id="path920-1-36-8-4-5"
       inkscape:connector-curvature="0"
       sodipodi:nodetypes="cccc" />
  </g>
</svg>
