{"frames": [

{
	"filename": "background.png",
	"frame": {"x":1,"y":1,"w":640,"h":418},
	"rotated": false,
	"trimmed": false,
	"spriteSourceSize": {"x":0,"y":0,"w":640,"h":418},
	"sourceSize": {"w":640,"h":418},
	"pivot": {"x":0.5,"y":0.5}
},
{
	"filename": "panneau1.png",
	"frame": {"x":224,"y":421,"w":70,"h":71},
	"rotated": false,
	"trimmed": false,
	"spriteSourceSize": {"x":0,"y":0,"w":70,"h":71},
	"sourceSize": {"w":70,"h":71},
	"pivot": {"x":0.5,"y":0.5}
},
{
	"filename": "panneau2.png",
	"frame": {"x":296,"y":421,"w":70,"h":71},
	"rotated": false,
	"trimmed": false,
	"spriteSourceSize": {"x":0,"y":0,"w":70,"h":71},
	"sourceSize": {"w":70,"h":71},
	"pivot": {"x":0.5,"y":0.5}
},
{
	"filename": "panneau3.png",
	"frame": {"x":151,"y":421,"w":71,"h":71},
	"rotated": false,
	"trimmed": false,
	"spriteSourceSize": {"x":0,"y":0,"w":71,"h":71},
	"sourceSize": {"w":71,"h":71},
	"pivot": {"x":0.5,"y":0.5}
},
{
	"filename": "panneau4.png",
	"frame": {"x":77,"y":421,"w":72,"h":71},
	"rotated": false,
	"trimmed": false,
	"spriteSourceSize": {"x":0,"y":0,"w":72,"h":71},
	"sourceSize": {"w":72,"h":71},
	"pivot": {"x":0.5,"y":0.5}
},
{
	"filename": "panneau5.png",
	"frame": {"x":1,"y":421,"w":74,"h":72},
	"rotated": false,
	"trimmed": false,
	"spriteSourceSize": {"x":0,"y":0,"w":74,"h":72},
	"sourceSize": {"w":74,"h":72},
	"pivot": {"x":0.5,"y":0.5}
},
{
	"filename": "panneau6.png",
	"frame": {"x":368,"y":421,"w":76,"h":70},
	"rotated": false,
	"trimmed": false,
	"spriteSourceSize": {"x":0,"y":0,"w":76,"h":70},
	"sourceSize": {"w":76,"h":70},
	"pivot": {"x":0.5,"y":0.5}
},
{
	"filename": "panneau7.png",
	"frame": {"x":446,"y":421,"w":77,"h":69},
	"rotated": false,
	"trimmed": false,
	"spriteSourceSize": {"x":0,"y":0,"w":77,"h":69},
	"sourceSize": {"w":77,"h":69},
	"pivot": {"x":0.5,"y":0.5}
},
{
	"filename": "panneau8.png",
	"frame": {"x":525,"y":421,"w":78,"h":68},
	"rotated": false,
	"trimmed": false,
	"spriteSourceSize": {"x":0,"y":0,"w":78,"h":68},
	"sourceSize": {"w":78,"h":68},
	"pivot": {"x":0.5,"y":0.5}
}],
"meta": {
	"app": "http://www.codeandweb.com/texturepacker",
	"version": "1.0",
	"image": "spritesheet.png",
	"format": "RGBA5551",
	"size": {"w":1024,"h":512},
	"scale": "1",
	"smartupdate": "$TexturePacker:SmartUpdate:ac0cdcb1f947afbabc5a358e5a0a0c90:5d5ff1eab0b76331cc637c347be160c0:729adc6043343cfda41c447ce8f464d6$"
}
}
