<?xml version="1.0" encoding="UTF-8" standalone="no"?>
<!-- Created with Inkscape (http://www.inkscape.org/) -->

<svg
   xmlns:dc="http://purl.org/dc/elements/1.1/"
   xmlns:cc="http://creativecommons.org/ns#"
   xmlns:rdf="http://www.w3.org/1999/02/22-rdf-syntax-ns#"
   xmlns:svg="http://www.w3.org/2000/svg"
   xmlns="http://www.w3.org/2000/svg"
   xmlns:xlink="http://www.w3.org/1999/xlink"
   xmlns:sodipodi="http://sodipodi.sourceforge.net/DTD/sodipodi-0.dtd"
   xmlns:inkscape="http://www.inkscape.org/namespaces/inkscape"
   width="1000"
   height="1000"
   viewBox="0 0 1000 1000"
   version="1.1"
   id="svg8"
   inkscape:version="0.92.3 (2405546, 2018-03-11)"
   sodipodi:docname="map_arcade.svg">
  <defs
     id="defs2" />
  <sodipodi:namedview
     id="base"
     pagecolor="#ffffff"
     bordercolor="#666666"
     borderopacity="1.0"
     inkscape:pageopacity="0.0"
     inkscape:pageshadow="2"
     inkscape:zoom="2.8"
     inkscape:cx="517.50112"
     inkscape:cy="531.18024"
     inkscape:document-units="px"
     inkscape:current-layer="layer1"
     showgrid="false"
     units="px"
     borderlayer="true"
     inkscape:window-width="1920"
     inkscape:window-height="1015"
     inkscape:window-x="0"
     inkscape:window-y="0"
     inkscape:window-maximized="1"
     inkscape:snap-global="false" />
  <metadata
     id="metadata5">
    <rdf:RDF>
      <cc:Work
         rdf:about="">
        <dc:format>image/svg+xml</dc:format>
        <dc:type
           rdf:resource="http://purl.org/dc/dcmitype/StillImage" />
        <dc:title />
      </cc:Work>
    </rdf:RDF>
  </metadata>
  <g
     inkscape:groupmode="layer"
     id="layer1"
     inkscape:label="Layer 1">
    <image
       sodipodi:absref="/home/magnes/Dreamcast/summoning_signals/asset/RAW/map_arcade/arcade2.png"
       xlink:href="arcade2.png"
       width="59"
       height="109"
       preserveAspectRatio="none"
       style="image-rendering:optimizeSpeed"
       id="image831"
       x="1046.4963"
       y="290.336" />
    <image
       sodipodi:absref="/home/magnes/Dreamcast/summoning_signals/asset/RAW/map_arcade/floor2.png"
       xlink:href="floor2.png"
       y="187.59641"
       x="430.71133"
       id="image928"
       style="image-rendering:optimizeSpeed"
       preserveAspectRatio="none"
       height="67"
       width="130" />
    <image
       sodipodi:absref="/home/magnes/Dreamcast/summoning_signals/asset/RAW/map_arcade/floor2.png"
       xlink:href="floor2.png"
       width="130"
       height="67"
       preserveAspectRatio="none"
       style="image-rendering:optimizeSpeed"
       id="image928-3"
       x="413.93484"
       y="228.43564" />
    <image
       sodipodi:absref="/home/magnes/Dreamcast/summoning_signals/asset/RAW/map_arcade/floor2.png"
       xlink:href="floor2.png"
       width="130"
       height="67"
       preserveAspectRatio="none"
       style="image-rendering:optimizeSpeed"
       id="image928-3-5"
       x="338.21429"
       y="263.64285" />
    <image
       sodipodi:absref="/home/magnes/Dreamcast/summoning_signals/asset/RAW/map_arcade/arcade5.png"
       xlink:href="arcade5.png"
       width="62"
       height="122"
       preserveAspectRatio="none"
       style="image-rendering:optimizeSpeed"
       id="image864"
       x="174.16917"
       y="203.89772"
       npcID="broken3" />
    <image
       sodipodi:absref="/home/magnes/Dreamcast/summoning_signals/asset/RAW/map_arcade/floor3.png"
       xlink:href="floor3.png"
       y="282.71426"
       x="-444.42853"
       id="image1010"
       style="image-rendering:optimizeSpeed"
       preserveAspectRatio="none"
       height="116"
       width="246"
       transform="scale(-1,1)" />
    <image
       sodipodi:absref="/home/magnes/Dreamcast/summoning_signals/asset/RAW/map_arcade/floor1.png"
       xlink:href="floor1.png"
       width="96"
       height="46"
       preserveAspectRatio="none"
       style="image-rendering:optimizeSpeed"
       id="image939-1"
       x="179.85716"
       y="325.57144" />
    <image
       sodipodi:absref="/home/magnes/Dreamcast/summoning_signals/asset/RAW/map_arcade/arcade7.png"
       xlink:href="arcade7.png"
       transform="scale(-1,1)"
       y="120.42799"
       x="-490.39206"
       id="image886-3"
       style="image-rendering:optimizeSpeed"
       preserveAspectRatio="none"
       height="137"
       width="89"
       npcID="broken2" />
    <image
       sodipodi:absref="/home/magnes/Dreamcast/summoning_signals/asset/RAW/map_arcade/arcade2.png"
       xlink:href="arcade2.png"
       y="313.54352"
       x="1092.4211"
       id="image831-5"
       style="image-rendering:optimizeSpeed"
       preserveAspectRatio="none"
       height="109"
       width="59" />
    <image
       sodipodi:absref="/home/magnes/Dreamcast/summoning_signals/asset/RAW/map_arcade/arcade1.png"
       xlink:href="arcade1.png"
       y="203.54732"
       x="327.76257"
       id="image820-3"
       style="image-rendering:optimizeSpeed"
       preserveAspectRatio="none"
       height="94"
       width="119" />
    <image
       sodipodi:absref="/home/magnes/Dreamcast/summoning_signals/asset/RAW/map_arcade/arcade3.png"
       xlink:href="arcade3.png"
       npcID="acid_dragon"
       width="60"
       height="107"
       preserveAspectRatio="none"
       style="image-rendering:optimizeSpeed"
       id="image842"
       x="298.0672"
       y="210.92311" />
    <image
       sodipodi:absref="/home/magnes/Dreamcast/summoning_signals/asset/RAW/map_arcade/arcade1.png"
       xlink:href="arcade1.png"
       transform="scale(-1,1)"
       width="119"
       height="94"
       preserveAspectRatio="none"
       style="image-rendering:optimizeSpeed"
       id="image820"
       x="-328.52307"
       y="266.33978" />
    <image
       sodipodi:absref="/home/magnes/Dreamcast/summoning_signals/asset/RAW/map_arcade/screen1.png"
       xlink:href="screen1.png"
       npcID="screen1"
       width="25"
       height="44"
       preserveAspectRatio="none"
       style="image-rendering:optimizeSpeed"
       id="image983"
       x="324.12311"
       y="210.90721" />
    <image
       sodipodi:absref="/home/magnes/Dreamcast/summoning_signals/asset/RAW/map_arcade/floor2.png"
       xlink:href="floor2.png"
       width="130"
       height="67"
       preserveAspectRatio="none"
       style="image-rendering:optimizeSpeed"
       id="image928-3-2"
       x="-511.42856"
       y="300.07144"
       transform="scale(-1,1)" />
    <image
       sodipodi:absref="/home/magnes/Dreamcast/summoning_signals/asset/RAW/map_arcade/floor2.png"
       xlink:href="floor2.png"
       width="130"
       height="67"
       preserveAspectRatio="none"
       style="image-rendering:optimizeSpeed"
       id="image928-5"
       x="-727.6601"
       y="510.9212"
       transform="scale(-1,1)" />
    <image
       sodipodi:absref="/home/magnes/Dreamcast/summoning_signals/asset/RAW/map_arcade/floor3.png"
       xlink:href="floor3.png"
       width="246"
       height="116"
       preserveAspectRatio="none"
       style="image-rendering:optimizeSpeed"
       id="image1010-6"
       x="582"
       y="177" />
    <image
       sodipodi:absref="/home/magnes/Dreamcast/summoning_signals/asset/RAW/map_arcade/floor2.png"
       xlink:href="floor2.png"
       width="130"
       height="67"
       preserveAspectRatio="none"
       style="image-rendering:optimizeSpeed"
       id="image928-5-2"
       x="687.85718"
       y="227.21429" />
    <image
       sodipodi:absref="/home/magnes/Dreamcast/summoning_signals/asset/RAW/map_arcade/floor2.png"
       xlink:href="floor2.png"
       width="130"
       height="67"
       preserveAspectRatio="none"
       style="image-rendering:optimizeSpeed"
       id="image928-5-9"
       x="660.71436"
       y="493.64285" />
    <image
       sodipodi:absref="/home/magnes/Dreamcast/summoning_signals/asset/RAW/map_arcade/floor1.png"
       xlink:href="floor1.png"
       y="479.07257"
       x="591.17401"
       id="image939"
       style="image-rendering:optimizeSpeed"
       preserveAspectRatio="none"
       height="46"
       width="96" />
    <image
       sodipodi:absref="/home/magnes/Dreamcast/summoning_signals/asset/RAW/map_arcade/floor2.png"
       xlink:href="floor2.png"
       width="130"
       height="67"
       preserveAspectRatio="none"
       style="image-rendering:optimizeSpeed"
       id="image928-3-2-7"
       x="-663.57147"
       y="442.92856"
       transform="scale(-1,1)" />
    <image
       sodipodi:absref="/home/magnes/Dreamcast/summoning_signals/asset/RAW/map_arcade/arcade6.png"
       xlink:href="arcade6.png"
       width="64"
       height="122"
       preserveAspectRatio="none"
       style="image-rendering:optimizeSpeed"
       id="image875"
       x="623.14618"
       y="98.385902"
       npcID="santiago" />
    <image
       sodipodi:absref="/home/magnes/Dreamcast/summoning_signals/asset/RAW/map_arcade/arcade8.png"
       xlink:href="arcade8.png"
       transform="scale(-1,1)"
       width="86"
       height="137"
       preserveAspectRatio="none"
       style="image-rendering:optimizeSpeed"
       id="image897"
       x="-744.91663"
       y="395.9104"
       npcID="broken1" />
    <image
       sodipodi:absref="/home/magnes/Dreamcast/summoning_signals/asset/RAW/map_arcade/arcade8.png"
       xlink:href="arcade8.png"
       y="99.528053"
       x="664.03711"
       id="image897-7"
       style="image-rendering:optimizeSpeed"
       preserveAspectRatio="none"
       height="137"
       width="86"
       npcID="broken1" />
    <image
       sodipodi:absref="/home/magnes/Dreamcast/summoning_signals/asset/RAW/map_arcade/arcade7.png"
       xlink:href="arcade7.png"
       width="89"
       height="137"
       preserveAspectRatio="none"
       style="image-rendering:optimizeSpeed"
       id="image886"
       x="699.3717"
       y="119.83714"
       npcID="broken2" />
    <image
       sodipodi:absref="/home/magnes/Dreamcast/summoning_signals/asset/RAW/map_arcade/arcade4.png"
       xlink:href="arcade4.png"
       transform="scale(-1,1)"
       width="81"
       height="140"
       preserveAspectRatio="none"
       style="image-rendering:optimizeSpeed"
       id="image853"
       x="-698.42029"
       y="415.08258"
       npcID="salvage1" />
    <image
       sodipodi:absref="/home/magnes/Dreamcast/summoning_signals/asset/RAW/map_arcade/screen2.png"
       xlink:href="screen2.png"
       npcID="screen2"
       width="37"
       height="56"
       preserveAspectRatio="none"
       style="image-rendering:optimizeSpeed"
       id="image994"
       x="627.92798"
       y="116.43745" />
    <image
       sodipodi:absref="/home/magnes/Dreamcast/summoning_signals/asset/RAW/map_arcade/floor2.png"
       xlink:href="floor2.png"
       width="130"
       height="67"
       preserveAspectRatio="none"
       style="image-rendering:optimizeSpeed"
       id="image928-5-2-0"
       x="-858.57147"
       y="272.92856"
       transform="scale(-1,1)" />
    <image
       sodipodi:absref="/home/magnes/Dreamcast/summoning_signals/asset/RAW/map_arcade/vmu.png"
       xlink:href="vmu.png"
       y="530.49683"
       x="694.71472"
       id="image1151"
       style="image-rendering:optimizeSpeed"
       preserveAspectRatio="none"
       height="10.863095"
       width="15.642857"
       npcID="vmu" />
  </g>
</svg>
