<?xml version="1.0" encoding="UTF-8" standalone="no"?>
<!-- Created with Inkscape (http://www.inkscape.org/) -->

<svg
   xmlns:dc="http://purl.org/dc/elements/1.1/"
   xmlns:cc="http://creativecommons.org/ns#"
   xmlns:rdf="http://www.w3.org/1999/02/22-rdf-syntax-ns#"
   xmlns:svg="http://www.w3.org/2000/svg"
   xmlns="http://www.w3.org/2000/svg"
   xmlns:xlink="http://www.w3.org/1999/xlink"
   xmlns:sodipodi="http://sodipodi.sourceforge.net/DTD/sodipodi-0.dtd"
   xmlns:inkscape="http://www.inkscape.org/namespaces/inkscape"
   width="2200"
   height="1500"
   viewBox="0 0 2200 1500"
   version="1.1"
   id="svg8"
   inkscape:version="0.92.3 (2405546, 2018-03-11)"
   sodipodi:docname="map_harbour.svg">
  <defs
     id="defs2" />
  <sodipodi:namedview
     id="base"
     pagecolor="#ffffff"
     bordercolor="#666666"
     borderopacity="1.0"
     inkscape:pageopacity="0.0"
     inkscape:pageshadow="2"
     inkscape:zoom="2.8"
     inkscape:cx="824.06706"
     inkscape:cy="1026.9163"
     inkscape:document-units="px"
     inkscape:current-layer="layer1"
     showgrid="false"
     units="px"
     borderlayer="true"
     inkscape:window-width="1920"
     inkscape:window-height="1015"
     inkscape:window-x="0"
     inkscape:window-y="0"
     inkscape:window-maximized="1"
     inkscape:snap-global="false" />
  <metadata
     id="metadata5">
    <rdf:RDF>
      <cc:Work
         rdf:about="">
        <dc:format>image/svg+xml</dc:format>
        <dc:type
           rdf:resource="http://purl.org/dc/dcmitype/StillImage" />
        <dc:title />
      </cc:Work>
    </rdf:RDF>
  </metadata>
  <g
     inkscape:groupmode="layer"
     id="layer1"
     inkscape:label="Layer 1">
    <image
       sodipodi:absref="/home/magnes/Dreamcast/summoning_signals/asset/RAW/map_harbour/quai.png"
       xlink:href="quai.png"
       transform="scale(1,-1)"
       y="-563.71204"
       x="707.04095"
       id="image820-3-3"
       style="image-rendering:optimizeSpeed"
       preserveAspectRatio="none"
       height="138"
       width="171"
       npcID="shadow1" />
    <image
       sodipodi:absref="/home/magnes/Dreamcast/summoning_signals/asset/RAW/map_harbour/gr6.png"
       xlink:href="gr6.png"
       y="-166.9709"
       x="-904.85254"
       id="image912"
       style="image-rendering:optimizeSpeed"
       preserveAspectRatio="none"
       height="74"
       width="113"
       transform="rotate(-161.67613)" />
    <image
       sodipodi:absref="/home/magnes/Dreamcast/summoning_signals/asset/RAW/map_harbour/gr2.png"
       xlink:href="gr2.png"
       y="390.61942"
       x="-612.83527"
       id="image879-3-1"
       style="image-rendering:optimizeSpeed"
       preserveAspectRatio="none"
       height="124.25348"
       width="159.97636"
       transform="rotate(-128.0664)" />
    <image
       sodipodi:absref="/home/magnes/Dreamcast/summoning_signals/asset/RAW/map_harbour/gr4.png"
       xlink:href="gr4.png"
       transform="rotate(-107.87775)"
       y="636.94238"
       x="-418.26764"
       id="image901-5-2"
       style="image-rendering:optimizeSpeed"
       preserveAspectRatio="none"
       height="134.59795"
       width="112.16496" />
    <image
       sodipodi:absref="/home/magnes/Dreamcast/summoning_signals/asset/RAW/map_harbour/rockwall.png"
       xlink:href="rockwall.png"
       width="304"
       height="303"
       preserveAspectRatio="none"
       style="image-rendering:optimizeSpeed"
       id="image1187"
       x="654.72314"
       y="125.93547" />
    <image
       sodipodi:absref="/home/magnes/Dreamcast/summoning_signals/asset/RAW/map_harbour/quai.png"
       xlink:href="quai.png"
       y="330.6687"
       x="803.14923"
       id="image820"
       style="image-rendering:optimizeSpeed"
       preserveAspectRatio="none"
       height="138"
       width="171"
       npcID="quai2" />
    <image
       sodipodi:absref="/home/magnes/Dreamcast/summoning_signals/asset/RAW/map_harbour/border_2.png"
       xlink:href="border_2.png"
       transform="scale(-1,1)"
       y="403.15198"
       x="-791.70575"
       id="image883-6"
       style="image-rendering:optimizeSpeed"
       preserveAspectRatio="none"
       height="35"
       width="50" />
    <image
       sodipodi:absref="/home/magnes/Dreamcast/summoning_signals/asset/RAW/map_harbour/quai.png"
       xlink:href="quai.png"
       width="171"
       height="138"
       preserveAspectRatio="none"
       style="image-rendering:optimizeSpeed"
       id="image820-3"
       x="-878.43494"
       y="369.24008"
       transform="scale(-1,1)"
       npcID="quai1" />
    <image
       sodipodi:absref="/home/magnes/Dreamcast/summoning_signals/asset/RAW/map_harbour/border_2.png"
       xlink:href="border_2.png"
       transform="scale(-1,1)"
       width="50"
       height="35"
       preserveAspectRatio="none"
       style="image-rendering:optimizeSpeed"
       id="image883-62-2"
       x="-181.07143"
       y="1056.7858" />
    <image
       sodipodi:absref="/home/magnes/Dreamcast/summoning_signals/asset/RAW/map_harbour/gr2.png"
       xlink:href="gr2.png"
       y="304.47729"
       x="895.18011"
       id="image879-2"
       style="image-rendering:optimizeSpeed"
       preserveAspectRatio="none"
       height="110.63354"
       width="147.13644"
       transform="rotate(67.935218)" />
    <image
       sodipodi:absref="/home/magnes/Dreamcast/summoning_signals/asset/RAW/map_harbour/gr4.png"
       xlink:href="gr4.png"
       width="85"
       height="102"
       preserveAspectRatio="none"
       style="image-rendering:optimizeSpeed"
       id="image901-6"
       x="-297.80066"
       y="-1096.6249"
       transform="rotate(-171.57371)" />
    <image
       sodipodi:absref="/home/magnes/Dreamcast/summoning_signals/asset/RAW/map_harbour/gr2.png"
       xlink:href="gr2.png"
       transform="rotate(60.359886)"
       width="103"
       height="80"
       preserveAspectRatio="none"
       style="image-rendering:optimizeSpeed"
       id="image879-3-2"
       x="991.87433"
       y="471.51605" />
    <image
       sodipodi:absref="/home/magnes/Dreamcast/summoning_signals/asset/RAW/map_harbour/gr4.png"
       xlink:href="gr4.png"
       width="112.16496"
       height="134.59795"
       preserveAspectRatio="none"
       style="image-rendering:optimizeSpeed"
       id="image901-5-9"
       x="1048.629"
       y="1.1233053"
       transform="rotate(80.548536)" />
    <image
       sodipodi:absref="/home/magnes/Dreamcast/summoning_signals/asset/RAW/map_harbour/gr3.png"
       xlink:href="gr3.png"
       width="123.94953"
       height="150.24185"
       preserveAspectRatio="none"
       style="image-rendering:optimizeSpeed"
       id="image890-1"
       x="-247.47449"
       y="-1151.4541"
       transform="rotate(-171.57371)" />
    <image
       sodipodi:absref="/home/magnes/Dreamcast/summoning_signals/asset/RAW/map_harbour/quai.png"
       xlink:href="quai.png"
       width="171"
       height="138"
       preserveAspectRatio="none"
       style="image-rendering:optimizeSpeed"
       id="image820-3-7"
       x="-341.67145"
       y="1024.9282"
       transform="scale(-1,1)"
       npcID="quai4" />
    <image
       sodipodi:absref="/home/magnes/Dreamcast/summoning_signals/asset/RAW/map_harbour/quai.png"
       xlink:href="quai.png"
       width="171"
       height="138"
       preserveAspectRatio="none"
       style="image-rendering:optimizeSpeed"
       id="image820-6"
       x="87.349976"
       y="1073.8217"
       npcID="quai5" />
    <image
       sodipodi:absref="/home/magnes/Dreamcast/summoning_signals/asset/RAW/map_harbour/quai.png"
       xlink:href="quai.png"
       npcID="quai3"
       width="171"
       height="138"
       preserveAspectRatio="none"
       style="image-rendering:optimizeSpeed"
       id="image820-6-5"
       x="222.62628"
       y="1138.9827" />
    <image
       sodipodi:absref="/home/magnes/Dreamcast/summoning_signals/asset/RAW/map_harbour/border_3.png"
       xlink:href="border_3.png"
       transform="scale(-1,1)"
       y="363.81696"
       x="-690.77173"
       id="image894-3"
       style="image-rendering:optimizeSpeed"
       preserveAspectRatio="none"
       height="47"
       width="34" />
    <image
       sodipodi:absref="/home/magnes/Dreamcast/summoning_signals/asset/RAW/map_harbour/border_3.png"
       xlink:href="border_3.png"
       transform="scale(-1,1)"
       y="384.52512"
       x="-706.93414"
       id="image894"
       style="image-rendering:optimizeSpeed"
       preserveAspectRatio="none"
       height="47"
       width="34" />
    <image
       sodipodi:absref="/home/magnes/Dreamcast/summoning_signals/asset/RAW/map_harbour/gr3.png"
       xlink:href="gr3.png"
       transform="rotate(130.52026)"
       y="-590.46594"
       x="-355.48459"
       id="image890-0-0"
       style="image-rendering:optimizeSpeed"
       preserveAspectRatio="none"
       height="120"
       width="99" />
    <image
       sodipodi:absref="/home/magnes/Dreamcast/summoning_signals/asset/RAW/map_harbour/gr2.png"
       xlink:href="gr2.png"
       y="-862.44812"
       x="511.3967"
       id="image879-3-6"
       style="image-rendering:optimizeSpeed"
       preserveAspectRatio="none"
       height="80"
       width="103"
       transform="rotate(144.61333)" />
    <image
       sodipodi:absref="/home/magnes/Dreamcast/summoning_signals/asset/RAW/map_harbour/gr4.png"
       xlink:href="gr4.png"
       transform="rotate(164.80198)"
       y="-1123.0039"
       x="187.79071"
       id="image901-5-1"
       style="image-rendering:optimizeSpeed"
       preserveAspectRatio="none"
       height="134.59795"
       width="112.16496" />
    <image
       sodipodi:absref="/home/magnes/Dreamcast/summoning_signals/asset/RAW/map_harbour/gr3.png"
       xlink:href="gr3.png"
       y="0.02281299"
       x="-984.94611"
       id="image890-62-8"
       style="image-rendering:optimizeSpeed"
       preserveAspectRatio="none"
       height="120"
       width="99"
       transform="rotate(-87.320267)" />
    <image
       sodipodi:absref="/home/magnes/Dreamcast/summoning_signals/asset/RAW/map_harbour/gr3.png"
       xlink:href="gr3.png"
       width="99"
       height="120"
       preserveAspectRatio="none"
       style="image-rendering:optimizeSpeed"
       id="image890-7"
       x="-1037.5245"
       y="35.882111"
       transform="rotate(-87.320267)" />
    <image
       sodipodi:absref="/home/magnes/Dreamcast/summoning_signals/asset/RAW/map_harbour/gr2.png"
       xlink:href="gr2.png"
       transform="rotate(117.37502)"
       width="103"
       height="80"
       preserveAspectRatio="none"
       style="image-rendering:optimizeSpeed"
       id="image879-9"
       x="790.10052"
       y="-545.28021" />
    <image
       sodipodi:absref="/home/magnes/Dreamcast/summoning_signals/asset/RAW/map_harbour/gr4.png"
       xlink:href="gr4.png"
       width="112.16496"
       height="134.59795"
       preserveAspectRatio="none"
       style="image-rendering:optimizeSpeed"
       id="image901-5-7-2"
       x="-809.28223"
       y="-1003.593"
       transform="rotate(-142.19061)" />
    <image
       sodipodi:absref="/home/magnes/Dreamcast/summoning_signals/asset/RAW/map_harbour/gr3.png"
       xlink:href="gr3.png"
       width="99"
       height="120"
       preserveAspectRatio="none"
       style="image-rendering:optimizeSpeed"
       id="image890-0-0-2"
       x="-1230.5792"
       y="-80.326759"
       transform="rotate(-93.980516)" />
    <image
       sodipodi:absref="/home/magnes/Dreamcast/summoning_signals/asset/RAW/map_harbour/gr3.png"
       xlink:href="gr3.png"
       width="99"
       height="120"
       preserveAspectRatio="none"
       style="image-rendering:optimizeSpeed"
       id="image890-0-0-5-9"
       x="-417.4158"
       y="-574.20386"
       transform="rotate(130.52026)" />
    <image
       sodipodi:absref="/home/magnes/Dreamcast/summoning_signals/asset/RAW/map_harbour/gr3.png"
       xlink:href="gr3.png"
       width="141.77974"
       height="171.85422"
       preserveAspectRatio="none"
       style="image-rendering:optimizeSpeed"
       id="image890-0-0-5"
       x="421.55872"
       y="-348.41818"
       transform="rotate(32.167118)" />
    <image
       sodipodi:absref="/home/magnes/Dreamcast/summoning_signals/asset/RAW/map_harbour/gr3.png"
       xlink:href="gr3.png"
       y="92.193634"
       x="510.72516"
       id="image890-6-6"
       style="image-rendering:optimizeSpeed"
       preserveAspectRatio="none"
       height="120"
       width="99" />
    <image
       sodipodi:absref="/home/magnes/Dreamcast/summoning_signals/asset/RAW/map_harbour/gr4.png"
       xlink:href="gr4.png"
       y="130.05692"
       x="556.85803"
       id="image901-5-93-1"
       style="image-rendering:optimizeSpeed"
       preserveAspectRatio="none"
       height="161.97685"
       width="134.83255" />
    <image
       sodipodi:absref="/home/magnes/Dreamcast/summoning_signals/asset/RAW/map_harbour/border_3.png"
       xlink:href="border_3.png"
       width="34"
       height="47"
       preserveAspectRatio="none"
       style="image-rendering:optimizeSpeed"
       id="image894-9"
       x="-594.85718"
       y="232.21426"
       transform="scale(-1,1)" />
    <image
       sodipodi:absref="/home/magnes/Dreamcast/summoning_signals/asset/RAW/map_harbour/gr2.png"
       xlink:href="gr2.png"
       y="-31.154932"
       x="-2461.8176"
       id="image879-9-9"
       style="image-rendering:optimizeSpeed"
       preserveAspectRatio="none"
       height="143.6386"
       width="184.93468"
       transform="rotate(-150.52935)" />
    <image
       sodipodi:absref="/home/magnes/Dreamcast/summoning_signals/asset/RAW/map_harbour/gr2.png"
       xlink:href="gr2.png"
       transform="rotate(67.935218)"
       width="147.13644"
       height="110.63354"
       preserveAspectRatio="none"
       style="image-rendering:optimizeSpeed"
       id="image879-2-7"
       x="1892.9042"
       y="-1541.8818" />
    <image
       sodipodi:absref="/home/magnes/Dreamcast/summoning_signals/asset/RAW/map_harbour/gr4.png"
       xlink:href="gr4.png"
       transform="rotate(-171.57371)"
       y="-907.61914"
       x="-2195.0876"
       id="image901-6-0"
       style="image-rendering:optimizeSpeed"
       preserveAspectRatio="none"
       height="102"
       width="85" />
    <image
       sodipodi:absref="/home/magnes/Dreamcast/summoning_signals/asset/RAW/map_harbour/gr2.png"
       xlink:href="gr2.png"
       y="-1159.9639"
       x="1987.1573"
       id="image879-3-2-9"
       style="image-rendering:optimizeSpeed"
       preserveAspectRatio="none"
       height="80"
       width="103"
       transform="rotate(60.359886)" />
    <image
       sodipodi:absref="/home/magnes/Dreamcast/summoning_signals/asset/RAW/map_harbour/gr4.png"
       xlink:href="gr4.png"
       transform="rotate(80.548536)"
       y="-1867.1292"
       x="1459.5106"
       id="image901-5-9-3"
       style="image-rendering:optimizeSpeed"
       preserveAspectRatio="none"
       height="134.59795"
       width="112.16496" />
    <image
       sodipodi:absref="/home/magnes/Dreamcast/summoning_signals/asset/RAW/map_harbour/rockwall.png"
       xlink:href="rockwall.png"
       transform="scale(-1,1)"
       y="958.58112"
       x="-2230.894"
       id="image1187-2"
       style="image-rendering:optimizeSpeed"
       preserveAspectRatio="none"
       height="303"
       width="304" />
    <image
       sodipodi:absref="/home/magnes/Dreamcast/summoning_signals/asset/RAW/map_harbour/quai.png"
       xlink:href="quai.png"
       y="1224.1287"
       x="1811.5206"
       id="image820-6-6"
       style="image-rendering:optimizeSpeed"
       preserveAspectRatio="none"
       height="138"
       width="171"
       npcID="quai6" />
    <image
       sodipodi:absref="/home/magnes/Dreamcast/summoning_signals/asset/RAW/map_harbour/gr3.png"
       xlink:href="gr3.png"
       transform="rotate(43.199993)"
       y="-549.53918"
       x="2329.6331"
       id="image890-0-0-2-0"
       style="image-rendering:optimizeSpeed"
       preserveAspectRatio="none"
       height="120"
       width="99" />
    <image
       sodipodi:absref="/home/magnes/Dreamcast/summoning_signals/asset/RAW/map_harbour/gr4.png"
       xlink:href="gr4.png"
       transform="rotate(-99.573644)"
       y="1773.3875"
       x="-1788.8693"
       id="image901-5-7-2-2"
       style="image-rendering:optimizeSpeed"
       preserveAspectRatio="none"
       height="215.56613"
       width="179.63846" />
    <image
       sodipodi:absref="/home/magnes/Dreamcast/summoning_signals/asset/RAW/map_harbour/gr4.png"
       xlink:href="gr4.png"
       width="112.16496"
       height="134.59795"
       preserveAspectRatio="none"
       style="image-rendering:optimizeSpeed"
       id="image901-5-1-1"
       x="-1665.6406"
       y="-1902.941"
       transform="rotate(164.80198)" />
    <image
       sodipodi:absref="/home/magnes/Dreamcast/summoning_signals/asset/RAW/map_harbour/border_3.png"
       xlink:href="border_3.png"
       y="1359.3572"
       x="-2004.1429"
       id="image894-5-3-0-6"
       style="image-rendering:optimizeSpeed"
       preserveAspectRatio="none"
       height="47"
       width="34"
       transform="scale(-1,1)" />
    <image
       sodipodi:absref="/home/magnes/Dreamcast/summoning_signals/asset/RAW/map_harbour/quai.png"
       xlink:href="quai.png"
       transform="scale(-1,1)"
       y="1285.3938"
       x="-2044.3965"
       id="image820-3-7-0"
       style="image-rendering:optimizeSpeed"
       preserveAspectRatio="none"
       height="138"
       width="171"
       npcID="quai7" />
    <image
       sodipodi:absref="/home/magnes/Dreamcast/summoning_signals/asset/RAW/map_harbour/quai.png"
       xlink:href="quai.png"
       y="1330.1711"
       x="1782.5536"
       id="image820-6-5-2"
       style="image-rendering:optimizeSpeed"
       preserveAspectRatio="none"
       height="138"
       width="171"
       npcID="quai8" />
    <image
       sodipodi:absref="/home/magnes/Dreamcast/summoning_signals/asset/RAW/map_harbour/gr3.png"
       xlink:href="gr3.png"
       transform="rotate(-87.320267)"
       y="2203.4885"
       x="-1205.9951"
       id="image890-7-7"
       style="image-rendering:optimizeSpeed"
       preserveAspectRatio="none"
       height="120"
       width="99" />
    <image
       y="18.106636"
       x="532.21393"
       id="warp-4-5"
       style="image-rendering:optimizeSpeed"
       preserveAspectRatio="none"
       height="64"
       width="64"
       warp="mountainpath"
       xlink:href="/home/magnes/Dreamcast/summoning_signals/asset/RAW/map_mountainpath/../icon/arrow_red.png"
       sodipodi:absref="/home/magnes/Dreamcast/summoning_signals/asset/RAW/map_mountainpath/../icon/arrow_red.png" />
    <image
       sodipodi:absref="/home/magnes/Dreamcast/summoning_signals/asset/RAW/map_harbour/border_2.png"
       xlink:href="border_2.png"
       y="402.14182"
       x="696.75397"
       id="image883"
       style="image-rendering:optimizeSpeed"
       preserveAspectRatio="none"
       height="35"
       width="50" />
    <image
       sodipodi:absref="/home/magnes/Dreamcast/summoning_signals/asset/RAW/map_harbour/border_1.png"
       xlink:href="border_1.png"
       y="1140.5853"
       x="96.443535"
       id="image872-7-5"
       style="image-rendering:optimizeSpeed"
       preserveAspectRatio="none"
       height="43"
       width="47" />
    <image
       sodipodi:absref="/home/magnes/Dreamcast/summoning_signals/asset/RAW/map_harbour/border_3.png"
       xlink:href="border_3.png"
       y="1161.3198"
       x="83.753128"
       id="image894-5-3"
       style="image-rendering:optimizeSpeed"
       preserveAspectRatio="none"
       height="47"
       width="34" />
    <image
       sodipodi:absref="/home/magnes/Dreamcast/summoning_signals/asset/RAW/map_harbour/border_3.png"
       xlink:href="border_3.png"
       y="1186.5"
       x="68"
       id="image894-5-3-9"
       style="image-rendering:optimizeSpeed"
       preserveAspectRatio="none"
       height="47"
       width="34" />
    <image
       sodipodi:absref="/home/magnes/Dreamcast/summoning_signals/asset/RAW/map_harbour/border_2.png"
       xlink:href="border_2.png"
       y="1209.0574"
       x="29.746891"
       id="image883-62"
       style="image-rendering:optimizeSpeed"
       preserveAspectRatio="none"
       height="35"
       width="50" />
    <image
       sodipodi:absref="/home/magnes/Dreamcast/summoning_signals/asset/RAW/map_harbour/border_1.png"
       xlink:href="border_1.png"
       y="1229.2142"
       x="-6.892859"
       id="image872-7-5-1"
       style="image-rendering:optimizeSpeed"
       preserveAspectRatio="none"
       height="43"
       width="47" />
    <image
       sodipodi:absref="/home/magnes/Dreamcast/summoning_signals/asset/RAW/map_harbour/border_1.png"
       xlink:href="border_1.png"
       transform="scale(-1,1)"
       width="47"
       height="43"
       preserveAspectRatio="none"
       style="image-rendering:optimizeSpeed"
       id="image872-7-5-7"
       x="-2031.6967"
       y="1380.0786" />
    <image
       sodipodi:absref="/home/magnes/Dreamcast/summoning_signals/asset/RAW/map_harbour/border_1.png"
       xlink:href="border_1.png"
       transform="scale(-1,1)"
       width="47"
       height="43"
       preserveAspectRatio="none"
       style="image-rendering:optimizeSpeed"
       id="image872-7-5-7-3"
       x="-1960.9727"
       y="1194.6472" />
    <image
       sodipodi:absref="/home/magnes/Dreamcast/summoning_signals/asset/RAW/map_harbour/border_3.png"
       xlink:href="border_3.png"
       transform="scale(-1,1)"
       width="34"
       height="47"
       preserveAspectRatio="none"
       style="image-rendering:optimizeSpeed"
       id="image894-5-3-0"
       x="-1974.6913"
       y="1213.9349" />
    <image
       sodipodi:absref="/home/magnes/Dreamcast/summoning_signals/asset/RAW/map_harbour/border_1.png"
       xlink:href="border_1.png"
       transform="scale(-1,1)"
       width="47"
       height="43"
       preserveAspectRatio="none"
       style="image-rendering:optimizeSpeed"
       id="image872-7-5-7-6"
       x="-2007.9447"
       y="1232.0227" />
    <image
       sodipodi:absref="/home/magnes/Dreamcast/summoning_signals/asset/RAW/map_harbour/border_2.png"
       xlink:href="border_2.png"
       width="50"
       height="35"
       preserveAspectRatio="none"
       style="image-rendering:optimizeSpeed"
       id="image883-62-9"
       x="1995.2766"
       y="1243.9948" />
    <image
       sodipodi:absref="/home/magnes/Dreamcast/summoning_signals/asset/RAW/map_harbour/border_2.png"
       xlink:href="border_2.png"
       width="50"
       height="35"
       preserveAspectRatio="none"
       style="image-rendering:optimizeSpeed"
       id="image883-62-9-6"
       x="2035.2061"
       y="1400.1726" />
    <image
       sodipodi:absref="/home/magnes/Dreamcast/summoning_signals/asset/RAW/map_harbour/border_2.png"
       xlink:href="border_2.png"
       width="50"
       height="35"
       preserveAspectRatio="none"
       style="image-rendering:optimizeSpeed"
       id="image883-62-9-6-2"
       x="2076.6223"
       y="1396.132" />
    <image
       sodipodi:absref="/home/magnes/Dreamcast/summoning_signals/asset/RAW/map_harbour/border_2.png"
       xlink:href="border_2.png"
       width="50"
       height="35"
       preserveAspectRatio="none"
       style="image-rendering:optimizeSpeed"
       id="image883-6-8"
       x="-676.7616"
       y="268.71933"
       transform="scale(-1,1)" />
    <image
       sodipodi:absref="/home/magnes/Dreamcast/summoning_signals/asset/RAW/map_harbour/border_2.png"
       xlink:href="border_2.png"
       transform="scale(-1,1)"
       width="50"
       height="35"
       preserveAspectRatio="none"
       style="image-rendering:optimizeSpeed"
       id="image883-7"
       x="-630.38123"
       y="259.13773" />
    <path
       style="fill:none;stroke:#000000;stroke-width:1px;stroke-linecap:butt;stroke-linejoin:miter;stroke-opacity:1"
       d="M 835.49022,467.93763 759.06165,799.36621 627.63308,1040.7948 293.34736,1125.0805 780.49022,1315.0805 1333.3474,1422.2234 1830.8717,1449.156 1633.9289,1352.3249 1599.6708,1095.1227 1924.061,298.88022 1331.1415,440.06668 Z"
       id="path875"
       inkscape:connector-curvature="0"
       sodipodi:nodetypes="cccccccccccc" />
    <image
       sodipodi:absref="/home/magnes/Dreamcast/summoning_signals/asset/RAW/map_harbour/portal.png"
       xlink:href="portal.png"
       y="520.39124"
       x="1478.6694"
       id="image893"
       style="image-rendering:optimizeSpeed"
       preserveAspectRatio="none"
       height="159"
       width="306"
       npcID="portal" />
    <image
       sodipodi:absref="/home/magnes/Dreamcast/summoning_signals/asset/default/temp_asset.png"
       y="1154.8527"
       x="1996.3861"
       id="image884-3-6"
       xlink:href="file:///home/magnes/Dreamcast/summoning_signals/asset/default/temp_asset.png"
       style="image-rendering:optimizeSpeed"
       preserveAspectRatio="none"
       height="64"
       width="64"
       npcID="watcher" />
    <image
       y="-104.73098"
       x="-1138.0404"
       id="warp-4-5-7"
       style="image-rendering:optimizeSpeed"
       preserveAspectRatio="none"
       height="64"
       width="64"
       warp="mountainpath"
       xlink:href="/home/magnes/Dreamcast/summoning_signals/asset/RAW/map_mountainpath/../icon/arrow_red.png"
       sodipodi:absref="/home/magnes/Dreamcast/summoning_signals/asset/RAW/map_mountainpath/../icon/arrow_red.png"
       transform="rotate(-90)" />
    <image
       y="-2304.8433"
       x="1286.1725"
       id="warp-4-5-7-5"
       style="image-rendering:optimizeSpeed"
       preserveAspectRatio="none"
       height="64"
       width="64"
       warp="mountainpath"
       xlink:href="/home/magnes/Dreamcast/summoning_signals/asset/RAW/map_mountainpath/../icon/arrow_red.png"
       sodipodi:absref="/home/magnes/Dreamcast/summoning_signals/asset/RAW/map_mountainpath/../icon/arrow_red.png"
       transform="rotate(90)" />
    <image
       sodipodi:absref="/home/magnes/Dreamcast/summoning_signals/asset/RAW/map_harbour/claude_BL.png"
       xlink:href="claude_BL.png"
       npcID="boat"
       width="237"
       height="125"
       preserveAspectRatio="none"
       style="image-rendering:optimizeSpeed"
       id="image896"
       x="705.78442"
       y="413.20529" />
  </g>
  <g
     inkscape:groupmode="layer"
     id="layer2"
     inkscape:label="Collision"
     style="display:inline">
    <path
       style="fill:none;stroke:#000000;stroke-width:1px;stroke-linecap:butt;stroke-linejoin:miter;stroke-opacity:1"
       d="M 438.57143,-5.7142857 560,310 358.57143,67.142857 Z"
       id="path884"
       inkscape:connector-curvature="0" />
    <path
       style="fill:none;stroke:#000000;stroke-width:1px;stroke-linecap:butt;stroke-linejoin:miter;stroke-opacity:1"
       d="M 661.42857,-21.428571 687.14286,101.42857 902.85714,34.285714 Z"
       id="path886"
       inkscape:connector-curvature="0" />
    <path
       style="fill:none;stroke:#000000;stroke-width:1px;stroke-linecap:butt;stroke-linejoin:miter;stroke-opacity:1"
       d="M 890,167.14286 998.57143,478.57143 1087.1429,224.28571 Z"
       id="path890"
       inkscape:connector-curvature="0" />
    <path
       style="fill:none;stroke:#000000;stroke-width:1px;stroke-linecap:butt;stroke-linejoin:miter;stroke-opacity:1"
       d="M 518.57143,220 667.14286,310 628.57143,411.42857 Z"
       id="path892"
       inkscape:connector-curvature="0" />
    <path
       style="fill:none;stroke:#000000;stroke-width:1px;stroke-linecap:butt;stroke-linejoin:miter;stroke-opacity:1"
       d="M 637.14286,357.14286 804.28571,577.14286 615.71429,445.71429 Z"
       id="path894"
       inkscape:connector-curvature="0" />
    <path
       style="fill:none;stroke:#000000;stroke-width:1px;stroke-linecap:butt;stroke-linejoin:miter;stroke-opacity:1"
       d="M 998.57143,425.71429 751.42857,527.14286 987.14286,574.28571 Z"
       id="path898"
       inkscape:connector-curvature="0" />
    <path
       style="fill:none;stroke:#000000;stroke-width:1px;stroke-linecap:butt;stroke-linejoin:miter;stroke-opacity:1"
       d="M 817.14286,47.142857 920,210 947.14286,82.857143 Z"
       id="path900"
       inkscape:connector-curvature="0" />
  </g>
</svg>
