{"frames": [

{
	"filename": "bg_large.png",
	"frame": {"x":0,"y":0,"w":1024,"h":512},
	"rotated": false,
	"trimmed": false,
	"spriteSourceSize": {"x":0,"y":0,"w":1024,"h":512},
	"sourceSize": {"w":1024,"h":512}
},
{
	"filename": "parasol.png",
	"frame": {"x":0,"y":512,"w":134,"h":127},
	"rotated": false,
	"trimmed": false,
	"spriteSourceSize": {"x":0,"y":0,"w":134,"h":127},
	"sourceSize": {"w":134,"h":127}
}],
"meta": {
	"app": "https://www.codeandweb.com/texturepacker",
	"version": "1.0",
	"image": "spritesheet.png",
	"format": "RGBA5551",
	"size": {"w":1024,"h":1024},
	"scale": "1",
	"smartupdate": "$TexturePacker:SmartUpdate:0aa83ff4fe4e1dbdae0193ffbebd49cf:98c43604a689d893f5ec45981173b4fa:729adc6043343cfda41c447ce8f464d6$"
}
}
