<?xml version="1.0" encoding="UTF-8" standalone="no"?>
<!-- Created with Inkscape (http://www.inkscape.org/) -->

<svg
   xmlns:dc="http://purl.org/dc/elements/1.1/"
   xmlns:cc="http://creativecommons.org/ns#"
   xmlns:rdf="http://www.w3.org/1999/02/22-rdf-syntax-ns#"
   xmlns:svg="http://www.w3.org/2000/svg"
   xmlns="http://www.w3.org/2000/svg"
   xmlns:sodipodi="http://sodipodi.sourceforge.net/DTD/sodipodi-0.dtd"
   xmlns:inkscape="http://www.inkscape.org/namespaces/inkscape"
   width="640"
   height="480"
   viewBox="0 0 640 480"
   version="1.1"
   id="svg8"
   inkscape:version="0.92.3 (2405546, 2018-03-11)"
   sodipodi:docname="templates.svg">
  <defs
     id="defs2" />
  <sodipodi:namedview
     id="base"
     pagecolor="#ffffff"
     bordercolor="#666666"
     borderopacity="1.0"
     inkscape:pageopacity="0.0"
     inkscape:pageshadow="2"
     inkscape:zoom="1.979899"
     inkscape:cx="277.23535"
     inkscape:cy="266.73105"
     inkscape:document-units="px"
     inkscape:current-layer="layer1"
     showgrid="false"
     units="px"
     borderlayer="true"
     inkscape:pagecheckerboard="false"
     showguides="true"
     inkscape:guide-bbox="true"
     inkscape:snap-global="true"
     inkscape:window-width="1366"
     inkscape:window-height="743"
     inkscape:window-x="0"
     inkscape:window-y="0"
     inkscape:window-maximized="1">
    <sodipodi:guide
       position="40,439.41636"
       orientation="1,0"
       id="guide22"
       inkscape:locked="false"
       inkscape:label=""
       inkscape:color="rgb(0,0,255)" />
    <sodipodi:guide
       position="80.812204,440"
       orientation="0,1"
       id="guide24"
       inkscape:locked="false"
       inkscape:label=""
       inkscape:color="rgb(0,0,255)" />
  </sodipodi:namedview>
  <metadata
     id="metadata5">
    <rdf:RDF>
      <cc:Work
         rdf:about="">
        <dc:format>image/svg+xml</dc:format>
        <dc:type
           rdf:resource="http://purl.org/dc/dcmitype/StillImage" />
        <dc:title></dc:title>
      </cc:Work>
    </rdf:RDF>
  </metadata>
  <g
     inkscape:label="Layer 1"
     inkscape:groupmode="layer"
     id="layer1"
     transform="translate(0,-169.99999)">
    <text
       xml:space="preserve"
       style="font-style:normal;font-weight:normal;font-size:22.53968239px;line-height:1.25;font-family:sans-serif;letter-spacing:0px;word-spacing:0px;fill:#000000;fill-opacity:1;stroke:none;stroke-width:0.56349206"
       x="39.084412"
       y="248.72725"
       id="text20-8"><tspan
         sodipodi:role="line"
         id="tspan18-8"
         x="39.084412"
         y="248.72725"
         style="font-style:normal;font-variant:normal;font-weight:normal;font-stretch:normal;font-family:'Khmer OS System';-inkscape-font-specification:'Khmer OS System';stroke-width:0.56349206;font-size:16px">(1/7) Radio</tspan></text>
    <g
       id="g4562"
       transform="translate(-12,28)">
      <text
         inkscape:export-ydpi="300"
         inkscape:export-xdpi="300"
         id="text20"
         y="199.53555"
         x="54.623917"
         style="font-style:normal;font-weight:normal;font-size:22.53968239px;line-height:1.25;font-family:sans-serif;letter-spacing:0px;word-spacing:0px;fill:#000000;fill-opacity:1;stroke:none;stroke-width:1;stroke-miterlimit:4;stroke-dasharray:none"
         xml:space="preserve"><tspan
           style="font-style:normal;font-variant:normal;font-weight:normal;font-stretch:normal;font-family:VG5000;-inkscape-font-specification:VG5000;fill:none;stroke:#000000;stroke-width:1;stroke-miterlimit:4;stroke-dasharray:none;stroke-opacity:1"
           y="199.53555"
           x="54.623917"
           id="tspan18"
           sodipodi:role="line">Pilot's Operating Handbook</tspan></text>
      <rect
         inkscape:export-ydpi="300"
         inkscape:export-xdpi="300"
         y="176.74352"
         x="47.982246"
         height="31.31473"
         width="288.39856"
         id="rect4557"
         style="fill:none;stroke:none;stroke-width:1;stroke-miterlimit:4;stroke-dasharray:none;stroke-opacity:1" />
    </g>
    <rect
       style="fill:none;stroke:#000000;stroke-width:0.80354971;stroke-miterlimit:4;stroke-dasharray:none;stroke-opacity:1"
       id="rect4564"
       width="178.87959"
       height="190"
       x="267.78653"
       y="290.02133" />
    <rect
       style="fill:none;stroke:#000000;stroke-width:1;stroke-miterlimit:4;stroke-dasharray:none;stroke-opacity:1"
       id="rect4566"
       width="32.857143"
       height="32.857143"
       x="272.85715"
       y="295.35712" />
    <rect
       style="fill:none;stroke:#000000;stroke-width:1;stroke-miterlimit:4;stroke-dasharray:none;stroke-opacity:1"
       id="rect4566-8"
       width="32.857143"
       height="32.857143"
       x="310"
       y="295.35712" />
    <rect
       style="fill:none;stroke:#000000;stroke-width:1;stroke-miterlimit:4;stroke-dasharray:none;stroke-opacity:1"
       id="rect4566-2"
       width="32.857143"
       height="32.857143"
       x="272.85715"
       y="332.21426" />
    <rect
       style="fill:none;stroke:#000000;stroke-width:1;stroke-miterlimit:4;stroke-dasharray:none;stroke-opacity:1"
       id="rect4566-8-3"
       width="32.857143"
       height="32.857143"
       x="310"
       y="332.21426" />
    <rect
       style="fill:none;stroke:#000000;stroke-width:1;stroke-miterlimit:4;stroke-dasharray:none;stroke-opacity:1"
       id="rect4566-8-0"
       width="32.857143"
       height="32.857143"
       x="272.85715"
       y="369.07141" />
    <rect
       style="fill:none;stroke:#000000;stroke-width:1;stroke-miterlimit:4;stroke-dasharray:none;stroke-opacity:1"
       id="rect4566-8-3-7"
       width="32.857143"
       height="32.857143"
       x="272.85715"
       y="405.92856" />
    <rect
       style="fill:none;stroke:#000000;stroke-width:1;stroke-miterlimit:4;stroke-dasharray:none;stroke-opacity:1"
       id="rect4566-8-0-7"
       width="32.857143"
       height="32.857143"
       x="272.85715"
       y="442.78571" />
  </g>
</svg>
