<?xml version="1.0" encoding="UTF-8" standalone="no"?>
<!-- Created with Inkscape (http://www.inkscape.org/) -->

<svg
   xmlns:dc="http://purl.org/dc/elements/1.1/"
   xmlns:cc="http://creativecommons.org/ns#"
   xmlns:rdf="http://www.w3.org/1999/02/22-rdf-syntax-ns#"
   xmlns:svg="http://www.w3.org/2000/svg"
   xmlns="http://www.w3.org/2000/svg"
   xmlns:xlink="http://www.w3.org/1999/xlink"
   xmlns:sodipodi="http://sodipodi.sourceforge.net/DTD/sodipodi-0.dtd"
   xmlns:inkscape="http://www.inkscape.org/namespaces/inkscape"
   width="640"
   height="480"
   viewBox="0 0 640 480"
   version="1.1"
   id="svg8"
   inkscape:version="0.92.3 (2405546, 2018-03-11)"
   sodipodi:docname="map_overworld.svg">
  <defs
     id="defs2">
    <inkscape:perspective
       sodipodi:type="inkscape:persp3d"
       inkscape:vp_x="0 : 240 : 1"
       inkscape:vp_y="0 : 1000 : 0"
       inkscape:vp_z="640 : 240 : 1"
       inkscape:persp3d-origin="320 : 160 : 1"
       id="perspective383" />
  </defs>
  <sodipodi:namedview
     id="base"
     pagecolor="#ffffff"
     bordercolor="#666666"
     borderopacity="1.0"
     inkscape:pageopacity="0.0"
     inkscape:pageshadow="2"
     inkscape:zoom="0.7000357"
     inkscape:cx="125.12413"
     inkscape:cy="212.48111"
     inkscape:document-units="px"
     inkscape:current-layer="layer1"
     showgrid="false"
     units="px"
     inkscape:window-width="1920"
     inkscape:window-height="1015"
     inkscape:window-x="0"
     inkscape:window-y="0"
     inkscape:window-maximized="1"
     inkscape:snap-global="true"
     fit-margin-top="0"
     fit-margin-left="0"
     fit-margin-right="0"
     fit-margin-bottom="0"
     showguides="true"
     inkscape:guide-bbox="true"
     inkscape:snap-bbox="true"
     inkscape:bbox-nodes="true" />
  <metadata
     id="metadata5">
    <rdf:RDF>
      <cc:Work
         rdf:about="">
        <dc:format>image/svg+xml</dc:format>
        <dc:type
           rdf:resource="http://purl.org/dc/dcmitype/StillImage" />
        <dc:title />
      </cc:Work>
    </rdf:RDF>
  </metadata>
  <g
     inkscape:label="Layer 1"
     inkscape:groupmode="layer"
     id="layer1">
    <image
       sodipodi:absref="/home/magnes/Dreamcast/summoning_signals/asset/RAW/map_overworld/quad_lines.png"
       xlink:href="quad_lines.png"
       width="64"
       height="64"
       preserveAspectRatio="none"
       style="image-rendering:optimizeSpeed"
       id="image5224"
       x="821.22864"
       y="123.65894" />
    <image
       sodipodi:absref="/home/magnes/Dreamcast/summoning_signals/asset/RAW/map_overworld/tri_lines.png"
       xlink:href="tri_lines.png"
       npcID="mountain"
       width="64"
       height="56"
       preserveAspectRatio="none"
       style="image-rendering:optimizeSpeed"
       id="image5202"
       x="821.22864"
       y="67.658943" />
    <image
       sodipodi:absref="/home/magnes/Dreamcast/summoning_signals/asset/RAW/map_overworld/quad_lines.png"
       xlink:href="quad_lines.png"
       transform="rotate(30)"
       y="-399.52255"
       x="828.45996"
       id="image5224-0"
       style="opacity:1;vector-effect:none;fill:#000000;fill-opacity:1;stroke-width:1;stroke-linecap:butt;stroke-linejoin:miter;stroke-miterlimit:4;stroke-dasharray:none;stroke-dashoffset:0;stroke-opacity:1;image-rendering:optimizeSpeed"
       preserveAspectRatio="none"
       height="64"
       width="64" />
    <image
       sodipodi:absref="/home/magnes/Dreamcast/summoning_signals/asset/RAW/map_overworld/tri_lines.png"
       xlink:href="tri_lines.png"
       transform="rotate(-150)"
       y="279.52255"
       x="-892.45996"
       id="image5202-9"
       style="image-rendering:optimizeSpeed"
       preserveAspectRatio="none"
       height="56"
       width="64" />
    <image
       sodipodi:absref="/home/magnes/Dreamcast/summoning_signals/asset/RAW/map_overworld/quad_lines.png"
       xlink:href="quad_lines.png"
       npcID="crash"
       width="64"
       height="64"
       preserveAspectRatio="none"
       style="opacity:1;vector-effect:none;fill:#000000;fill-opacity:1;stroke-width:1;stroke-linecap:butt;stroke-linejoin:miter;stroke-miterlimit:4;stroke-dasharray:none;stroke-dashoffset:0;stroke-opacity:1;image-rendering:optimizeSpeed"
       id="image5224-0-6"
       x="303.52255"
       y="709.03436"
       transform="rotate(-60)" />
    <image
       sodipodi:absref="/home/magnes/Dreamcast/summoning_signals/asset/RAW/map_overworld/tri_lines.png"
       xlink:href="tri_lines.png"
       npcID="hardware"
       transform="rotate(60)"
       y="-673.37543"
       x="398.28046"
       id="image5202-5-9"
       style="image-rendering:optimizeSpeed"
       preserveAspectRatio="none"
       height="56"
       width="64" />
    <image
       sodipodi:absref="/home/magnes/Dreamcast/summoning_signals/asset/RAW/map_overworld/tri_lines.png"
       xlink:href="tri_lines.png"
       transform="rotate(-150)"
       y="247.52257"
       x="-773.03436"
       id="image5202-2"
       style="image-rendering:optimizeSpeed"
       preserveAspectRatio="none"
       height="56"
       width="64"
       npcID="Pilot Operating Handbook" />
    <image
       sodipodi:absref="/home/magnes/Dreamcast/summoning_signals/asset/RAW/map_overworld/quad_lines.png"
       xlink:href="quad_lines.png"
       width="64"
       height="64"
       preserveAspectRatio="none"
       style="opacity:1;vector-effect:none;fill:#000000;fill-opacity:1;stroke-width:1;stroke-linecap:butt;stroke-linejoin:miter;stroke-miterlimit:4;stroke-dasharray:none;stroke-dashoffset:0;stroke-opacity:1;image-rendering:optimizeSpeed"
       id="image5224-0-9"
       x="-617.37543"
       y="-637.13165"
       transform="rotate(150)"
       npcID="shed" />
    <image
       sodipodi:absref="/home/magnes/Dreamcast/summoning_signals/asset/RAW/map_overworld/quad_lines.png"
       xlink:href="quad_lines.png"
       transform="rotate(120)"
       y="-924.45996"
       x="-280.09692"
       id="image5224-0-6-7"
       style="opacity:1;vector-effect:none;fill:#000000;fill-opacity:1;stroke-width:1;stroke-linecap:butt;stroke-linejoin:miter;stroke-miterlimit:4;stroke-dasharray:none;stroke-dashoffset:0;stroke-opacity:1;image-rendering:optimizeSpeed"
       preserveAspectRatio="none"
       height="64"
       width="64" />
    <image
       sodipodi:absref="/home/magnes/Dreamcast/summoning_signals/asset/RAW/map_overworld/tri_lines.png"
       xlink:href="tri_lines.png"
       width="64"
       height="56"
       preserveAspectRatio="none"
       style="image-rendering:optimizeSpeed"
       id="image5202-5-9-3"
       x="828.4599"
       y="-216.67133"
       transform="rotate(30)" />
    <image
       sodipodi:absref="/home/magnes/Dreamcast/summoning_signals/asset/RAW/map_overworld/tri_lines.png"
       xlink:href="tri_lines.png"
       y="99.658943"
       x="940.6543"
       id="image5202-6"
       style="image-rendering:optimizeSpeed"
       preserveAspectRatio="none"
       height="56"
       width="64" />
    <image
       sodipodi:absref="/home/magnes/Dreamcast/summoning_signals/asset/RAW/map_overworld/quad_lines.png"
       xlink:href="quad_lines.png"
       width="64"
       height="64"
       preserveAspectRatio="none"
       style="opacity:1;vector-effect:none;fill:#000000;fill-opacity:1;stroke-width:1;stroke-linecap:butt;stroke-linejoin:miter;stroke-miterlimit:4;stroke-dasharray:none;stroke-dashoffset:0;stroke-opacity:1;image-rendering:optimizeSpeed"
       id="image5224-0-1"
       x="573.13171"
       y="-856.22662"
       transform="rotate(60)" />
    <image
       sodipodi:absref="/home/magnes/Dreamcast/summoning_signals/asset/RAW/map_overworld/tri_lines.png"
       xlink:href="tri_lines.png"
       width="64"
       height="56"
       preserveAspectRatio="none"
       style="image-rendering:optimizeSpeed"
       id="image5202-5-9-2"
       x="36.233315"
       y="-1028.6543"
       transform="rotate(90)"
       npcID="agora" />
    <image
       sodipodi:absref="/home/magnes/Dreamcast/summoning_signals/asset/RAW/map_overworld/tri_lines.png"
       xlink:href="tri_lines.png"
       transform="scale(1,-1)"
       y="-243.65892"
       x="821.22864"
       id="image5202-93"
       style="image-rendering:optimizeSpeed"
       preserveAspectRatio="none"
       height="56"
       width="64" />
    <image
       sodipodi:absref="/home/magnes/Dreamcast/summoning_signals/asset/RAW/map_overworld/tri_lines.png"
       xlink:href="tri_lines.png"
       npcID="tri_line"
       width="64"
       height="56"
       preserveAspectRatio="none"
       style="image-rendering:optimizeSpeed"
       id="image5667"
       x="647.96527"
       y="291.29391" />
    <image
       sodipodi:absref="/home/magnes/Dreamcast/summoning_signals/asset/RAW/map_overworld/quad_lines.png"
       xlink:href="quad_lines.png"
       width="64"
       height="64"
       preserveAspectRatio="none"
       style="image-rendering:optimizeSpeed"
       id="image5678"
       x="664.39307"
       y="378.71783" />
  </g>
</svg>
