{"frames": [

{
	"filename": "quad_lines.png",
	"frame": {"x":1,"y":1,"w":64,"h":64},
	"rotated": false,
	"trimmed": false,
	"spriteSourceSize": {"x":0,"y":0,"w":64,"h":64},
	"sourceSize": {"w":64,"h":64}
},
{
	"filename": "tri_lines.png",
	"frame": {"x":1,"y":67,"w":64,"h":56},
	"rotated": false,
	"trimmed": false,
	"spriteSourceSize": {"x":0,"y":0,"w":64,"h":56},
	"sourceSize": {"w":64,"h":56}
}],
"meta": {
	"app": "https://www.codeandweb.com/texturepacker",
	"version": "1.0",
	"image": "spritesheet.png",
	"format": "RGBA5551",
	"size": {"w":128,"h":128},
	"scale": "1",
	"smartupdate": "$TexturePacker:SmartUpdate:27a543c4d84de3104ba01206b63a2b57:0d454e2cb054698d34c475f1acf0fed8:729adc6043343cfda41c447ce8f464d6$"
}
}
