{"frames": [

{
	"filename": "gr1.png",
	"frame": {"x":0,"y":419,"w":255,"h":70},
	"rotated": false,
	"trimmed": false,
	"spriteSourceSize": {"x":0,"y":0,"w":255,"h":70},
	"sourceSize": {"w":255,"h":70}
},
{
	"filename": "gr2.png",
	"frame": {"x":440,"y":363,"w":103,"h":80},
	"rotated": false,
	"trimmed": false,
	"spriteSourceSize": {"x":0,"y":0,"w":103,"h":80},
	"sourceSize": {"w":103,"h":80}
},
{
	"filename": "gr3.png",
	"frame": {"x":243,"y":289,"w":99,"h":120},
	"rotated": false,
	"trimmed": false,
	"spriteSourceSize": {"x":0,"y":0,"w":99,"h":120},
	"sourceSize": {"w":99,"h":120}
},
{
	"filename": "gr4.png",
	"frame": {"x":355,"y":393,"w":85,"h":102},
	"rotated": false,
	"trimmed": false,
	"spriteSourceSize": {"x":0,"y":0,"w":85,"h":102},
	"sourceSize": {"w":85,"h":102}
},
{
	"filename": "gr5.png",
	"frame": {"x":255,"y":409,"w":100,"h":87},
	"rotated": false,
	"trimmed": false,
	"spriteSourceSize": {"x":0,"y":0,"w":100,"h":87},
	"sourceSize": {"w":100,"h":87}
},
{
	"filename": "gr6.png",
	"frame": {"x":440,"y":289,"w":113,"h":74},
	"rotated": false,
	"trimmed": false,
	"spriteSourceSize": {"x":0,"y":0,"w":113,"h":74},
	"sourceSize": {"w":113,"h":74}
},
{
	"filename": "gr7.png",
	"frame": {"x":342,"y":289,"w":98,"h":104},
	"rotated": false,
	"trimmed": false,
	"spriteSourceSize": {"x":0,"y":0,"w":98,"h":104},
	"sourceSize": {"w":98,"h":104}
},
{
	"filename": "ship_1.png",
	"frame": {"x":0,"y":289,"w":243,"h":130},
	"rotated": false,
	"trimmed": false,
	"spriteSourceSize": {"x":0,"y":0,"w":243,"h":130},
	"sourceSize": {"w":243,"h":130}
},
{
	"filename": "ship_2.png",
	"frame": {"x":440,"y":443,"w":129,"h":62},
	"rotated": false,
	"trimmed": false,
	"spriteSourceSize": {"x":0,"y":0,"w":129,"h":62},
	"sourceSize": {"w":129,"h":62}
},
{
	"filename": "structure.png",
	"frame": {"x":0,"y":0,"w":531,"h":289},
	"rotated": false,
	"trimmed": false,
	"spriteSourceSize": {"x":0,"y":0,"w":531,"h":289},
	"sourceSize": {"w":531,"h":289}
}],
"meta": {
	"app": "https://www.codeandweb.com/texturepacker",
	"version": "1.0",
	"image": "spritesheet.png",
	"format": "RGBA5551",
	"size": {"w":1024,"h":512},
	"scale": "1",
	"smartupdate": "$TexturePacker:SmartUpdate:3de095a5a4b02aa7b80241065ebd22f3:6b25cccd9c83d9d98670bdfd5ec3e2b4:729adc6043343cfda41c447ce8f464d6$"
}
}
