{"frames": [

{
	"filename": "car.png",
	"frame": {"x":0,"y":672,"w":271,"h":126},
	"rotated": false,
	"trimmed": false,
	"spriteSourceSize": {"x":0,"y":0,"w":271,"h":126},
	"sourceSize": {"w":271,"h":126}
},
{
	"filename": "door.png",
	"frame": {"x":398,"y":115,"w":63,"h":108},
	"rotated": false,
	"trimmed": false,
	"spriteSourceSize": {"x":0,"y":0,"w":63,"h":108},
	"sourceSize": {"w":63,"h":108}
},
{
	"filename": "door_black.png",
	"frame": {"x":398,"y":223,"w":63,"h":108},
	"rotated": false,
	"trimmed": false,
	"spriteSourceSize": {"x":0,"y":0,"w":63,"h":108},
	"sourceSize": {"w":63,"h":108}
},
{
	"filename": "g1.png",
	"frame": {"x":0,"y":0,"w":398,"h":323},
	"rotated": false,
	"trimmed": false,
	"spriteSourceSize": {"x":0,"y":0,"w":398,"h":323},
	"sourceSize": {"w":398,"h":323}
},
{
	"filename": "g2.png",
	"frame": {"x":0,"y":323,"w":255,"h":349},
	"rotated": false,
	"trimmed": false,
	"spriteSourceSize": {"x":0,"y":0,"w":255,"h":349},
	"sourceSize": {"w":255,"h":349}
},
{
	"filename": "storefront.png",
	"frame": {"x":398,"y":0,"w":89,"h":115},
	"rotated": false,
	"trimmed": false,
	"spriteSourceSize": {"x":0,"y":0,"w":89,"h":115},
	"sourceSize": {"w":89,"h":115}
}],
"meta": {
	"app": "https://www.codeandweb.com/texturepacker",
	"version": "1.0",
	"image": "spritesheet.png",
	"format": "RGBA5551",
	"size": {"w":512,"h":1024},
	"scale": "1",
	"smartupdate": "$TexturePacker:SmartUpdate:4f80a234f72b6eea7444a259f3652a94:7e9a7c8b570b4f7a321e2fd06a384a19:729adc6043343cfda41c447ce8f464d6$"
}
}
