{"frames": [

{
	"filename": "background.png",
	"frame": {"x":1,"y":1,"w":640,"h":480},
	"rotated": false,
	"trimmed": false,
	"spriteSourceSize": {"x":0,"y":0,"w":640,"h":480},
	"sourceSize": {"w":640,"h":480}
},
{
	"filename": "panneau0001.png",
	"frame": {"x":698,"y":69,"w":52,"h":70},
	"rotated": false,
	"trimmed": false,
	"spriteSourceSize": {"x":0,"y":0,"w":52,"h":70},
	"sourceSize": {"w":52,"h":70}
},
{
	"filename": "panneau0002.png",
	"frame": {"x":643,"y":69,"w":53,"h":70},
	"rotated": false,
	"trimmed": false,
	"spriteSourceSize": {"x":0,"y":0,"w":53,"h":70},
	"sourceSize": {"w":53,"h":70}
},
{
	"filename": "panneau0003.png",
	"frame": {"x":943,"y":1,"w":54,"h":68},
	"rotated": false,
	"trimmed": false,
	"spriteSourceSize": {"x":0,"y":0,"w":54,"h":68},
	"sourceSize": {"w":54,"h":68}
},
{
	"filename": "panneau0004.png",
	"frame": {"x":885,"y":1,"w":56,"h":68},
	"rotated": false,
	"trimmed": false,
	"spriteSourceSize": {"x":0,"y":0,"w":56,"h":68},
	"sourceSize": {"w":56,"h":68}
},
{
	"filename": "panneau0005.png",
	"frame": {"x":826,"y":1,"w":57,"h":67},
	"rotated": false,
	"trimmed": false,
	"spriteSourceSize": {"x":0,"y":0,"w":57,"h":67},
	"sourceSize": {"w":57,"h":67}
},
{
	"filename": "panneau0006.png",
	"frame": {"x":643,"y":1,"w":59,"h":66},
	"rotated": false,
	"trimmed": false,
	"spriteSourceSize": {"x":0,"y":0,"w":59,"h":66},
	"sourceSize": {"w":59,"h":66}
},
{
	"filename": "panneau0007.png",
	"frame": {"x":704,"y":1,"w":59,"h":66},
	"rotated": false,
	"trimmed": false,
	"spriteSourceSize": {"x":0,"y":0,"w":59,"h":66},
	"sourceSize": {"w":59,"h":66}
},
{
	"filename": "panneau0008.png",
	"frame": {"x":765,"y":1,"w":59,"h":66},
	"rotated": false,
	"trimmed": false,
	"spriteSourceSize": {"x":0,"y":0,"w":59,"h":66},
	"sourceSize": {"w":59,"h":66}
},
{
	"filename": "tv1.png",
	"frame": {"x":752,"y":69,"w":33,"h":49},
	"rotated": false,
	"trimmed": false,
	"spriteSourceSize": {"x":0,"y":0,"w":33,"h":49},
	"sourceSize": {"w":33,"h":49}
},
{
	"filename": "tv2.png",
	"frame": {"x":787,"y":69,"w":33,"h":49},
	"rotated": false,
	"trimmed": false,
	"spriteSourceSize": {"x":0,"y":0,"w":33,"h":49},
	"sourceSize": {"w":33,"h":49}
},
{
	"filename": "tv3.png",
	"frame": {"x":822,"y":70,"w":33,"h":49},
	"rotated": false,
	"trimmed": false,
	"spriteSourceSize": {"x":0,"y":0,"w":33,"h":49},
	"sourceSize": {"w":33,"h":49}
},
{
	"filename": "tv4.png",
	"frame": {"x":752,"y":120,"w":33,"h":49},
	"rotated": false,
	"trimmed": false,
	"spriteSourceSize": {"x":0,"y":0,"w":33,"h":49},
	"sourceSize": {"w":33,"h":49}
}],
"meta": {
	"app": "https://www.codeandweb.com/texturepacker",
	"version": "1.0",
	"image": "spritesheet.png",
	"format": "RGBA8888",
	"size": {"w":1024,"h":512},
	"scale": "1",
	"smartupdate": "$TexturePacker:SmartUpdate:2111d701656727a23568767a2e1c39f6:e890315611d62a722f5204f4b277e39d:729adc6043343cfda41c447ce8f464d6$"
}
}
